{
    "type": "FeatureCollection",
    "name": "mun",
    "features": [{
            "type": "Feature",
            "properties": { "color": "red", "entidad_cvegeo": "18", "municipio_cvegeo": "18005", "entidad_nombre": "Huajicori", "municipi_2": "SRID=6362;MULTIPOLYGON(((2185928.548 1184800.4886,2184423.763 1180237.0635,2181385.5161 1180258.4626,2183198.4583 1177062.9686,2183190.3 1177063.1,2183118 1177087.3,2183033.8 1177127.6,2183017 1177141.1,2182998.3 1177147.3,2182941.3 1177139,2182899.8 117", "municipi_3": 0 },
            "geometry": {
                "type": "Polygon",
                "coordinates": [
                    [
                        [-105.07236894474174, 22.656499094179445],
                        [-105.097433016214168, 22.585736726445486],
                        [-105.202895084915284, 22.537177619738248],
                        [-105.245576427057813, 22.587382171175314],
                        [-105.26836225198079, 22.568693960397283],
                        [-105.383290979131161, 22.565310859599304],
                        [-105.405542379835197, 22.655940185406052],
                        [-105.463963102947531, 22.659238302674986],
                        [-105.498063846047373, 22.651390756332688],
                        [-105.522893459668197, 22.72433479897008],
                        [-105.523194769471928, 22.77307532096096],
                        [-105.494938594072352, 22.810616230083934],
                        [-105.4712199101875, 22.883285955447647],
                        [-105.501263928022141, 22.958560041302242],
                        [-105.453311346323304, 22.977401795804358],
                        [-105.412996495025567, 23.074099201946993],
                        [-105.392245390400106, 23.084081987629219],
                        [-105.350471188178588, 23.060575344686583],
                        [-105.353804643234952, 23.020256338358475],
                        [-105.323569886766506, 22.941330168481898],
                        [-105.297699065211845, 22.95416210701983],
                        [-105.076015786384446, 22.959638824007435],
                        [-105.003283615257757, 22.976991997626349],
                        [-105.009710358080795, 22.92148193387106],
                        [-104.987464250875277, 22.84618438608306],
                        [-104.958967311934273, 22.813604605196932],
                        [-104.905600754748008, 22.799817191109248],
                        [-104.915636643047165, 22.74853797394961],
                        [-105.057302699558363, 22.688094001336044],
                        [-105.07236894474174, 22.656499094179445]
                    ]
                ]
            }
        },
        {
            "type": "Feature",
            "properties": { "color": "red", "entidad_cvegeo": "18", "municipio_cvegeo": "18006", "entidad_nombre": "Ixtlán del Río", "municipi_2": "SRID=6362;MULTIPOLYGON(((2268756.9999 1023019.6,2268879.8 1022983.6,2269013.8 1022906.8,2269096.5 1022797.1,2269124.8 1022734.8,2269127.5 1022682.1,2269117.3 1022624.4,2269102 1022563,2269066.5364 1022467.3984,2269031.8 1022338.5,2269015.5 1022230.9,2268", "municipi_3": 0 },
            "geometry": {
                "type": "Polygon",
                "coordinates": [
                    [
                        [-104.237576434831922, 21.202227332572111],
                        [-104.219397977401798, 21.176610587053055],
                        [-104.216718574817122, 21.085791193847694],
                        [-104.238394833526598, 21.052273140265751],
                        [-104.23312944464432, 20.968743373009712],
                        [-104.204841774175591, 20.959900907780185],
                        [-104.259492783907206, 20.893974605591072],
                        [-104.292339245428252, 20.848780872569691],
                        [-104.352046730691654, 20.935886740511474],
                        [-104.397449779807928, 20.969097300367423],
                        [-104.44049571032464, 20.942656414497598],
                        [-104.455418467176173, 20.985033722718821],
                        [-104.428620535558593, 21.055371623290419],
                        [-104.419886287544642, 21.069839822756698],
                        [-104.308892487475219, 21.071281701872582],
                        [-104.290505935697169, 21.086553977503428],
                        [-104.322515015238679, 21.142748503234674],
                        [-104.324236412654059, 21.198301471143903],
                        [-104.237576434831922, 21.202227332572111]
                    ]
                ]
            }
        },
        {
            "type": "Feature",
            "properties": { "color": "orange", "entidad_cvegeo": "18", "municipio_cvegeo": "18007", "entidad_nombre": "Jala", "municipi_2": "SRID=6362;MULTIPOLYGON(((2268756.9999 1023019.6,2268643.5389 1023068.9327,2266948.886 1023531.2066,2266326.7299 1023896.1546,2266327.6111 1023568.8796,2265423.1251 1023281.4467,2264808.8722 1023042.4408,2264272.3451 1023178.1358,2263557.507 1023400.4615,", "municipi_3": 0 },
            "geometry": {
                "type": "Polygon",
                "coordinates": [
                    [
                        [-104.237576434831922, 21.202227332572111],
                        [-104.324236412654059, 21.198301471143903],
                        [-104.322515015238679, 21.142748503234674],
                        [-104.290505935697169, 21.086553977503428],
                        [-104.308892487475219, 21.071281701872582],
                        [-104.419886287544642, 21.069839822756698],
                        [-104.428620535558593, 21.055371623290419],
                        [-104.470042081097048, 21.106310363821081],
                        [-104.523855696578295, 21.129234797025013],
                        [-104.538838156343402, 21.17824924387374],
                        [-104.548214980140585, 21.196098322036168],
                        [-104.409456452458613, 21.28748019547999],
                        [-104.400136474495852, 21.3512630853545],
                        [-104.358733124825719, 21.326873703034664],
                        [-104.349850314686492, 21.274213390236572],
                        [-104.247677414572209, 21.226532174824879],
                        [-104.237576434831922, 21.202227332572111]
                    ]
                ]
            }
        },
        {
            "type": "Feature",
            "properties": { "color": "orange", "entidad_cvegeo": "18", "municipio_cvegeo": "18008", "entidad_nombre": "Xalisco", "municipi_2": "SRID=6362;MULTIPOLYGON(((2188967.0189 1056912.3386,2189928.4581 1056534.8327,2190871.3439 1056541.6567,2191376.8029 1056112.3586,2191383.3971 1056106.8827,2191642.9451 1055896.2495,2193155.172 1054699.2446,2195300.1195 1053999.653,2197420.1652 1053790.72", "municipi_3": 0 },
            "geometry": {
                "type": "Polygon",
                "coordinates": [
                    [
                        [-104.763971058529123, 21.394867420515538],
                        [-104.79669527687895, 21.32214177828439],
                        [-104.802470427555519, 21.326373100957301],
                        [-104.870406251372629, 21.33498887844101],
                        [-104.881396693968, 21.313105363691768],
                        [-104.960299727554613, 21.305874242232818],
                        [-104.996089426341186, 21.337436907143033],
                        [-105.047769523128778, 21.342302219925752],
                        [-105.098871223575571, 21.316566133160581],
                        [-105.149539007788519, 21.355852463449096],
                        [-105.137302017583679, 21.394232640473291],
                        [-105.097279409337716, 21.405476398618948],
                        [-105.092492494867798, 21.44729507562263],
                        [-105.046661858015554, 21.458663855820443],
                        [-105.022238468895281, 21.489535161864691],
                        [-104.864692035567955, 21.454517708257214],
                        [-104.847124232547699, 21.418685218265534],
                        [-104.763971058529123, 21.394867420515538]
                    ]
                ]
            }
        },
        {
            "type": "Feature",
            "properties": { "color": "orange", "entidad_cvegeo": "18", "municipio_cvegeo": "18009", "entidad_nombre": "Del Nayar", "municipi_2": "SRID=6362;MULTIPOLYGON(((2209653.3 1183139.4,2209766.5 1183116.8658,2209866 1183139.6,2209945.1051 1183152.2736,2210049.6813 1183061.9166,2210092.6463 1183016.852,2210128.0929 1182959.9849,2210165.7707 1182924.192,2210218.4016 1182878.0545,2210292.516 11", "municipi_3": 0 },
            "geometry": {
                "type": "Polygon",
                "coordinates": [
                    [
                        [-104.348842923472759, 22.409716641377646],
                        [-104.350040929597284, 22.386405418386246],
                        [-104.29256360485337, 22.344315803906948],
                        [-104.295639504669623, 22.276908462278193],
                        [-104.328601656593904, 22.245486077897642],
                        [-104.336550609702741, 22.18672193839857],
                        [-104.373223633564862, 22.101355874816768],
                        [-104.363722687279278, 21.974000917463666],
                        [-104.395899840181272, 21.939270966608657],
                        [-104.443933112585512, 21.928151494925938],
                        [-104.41009727441083, 21.855779736979521],
                        [-104.44811508448683, 21.748176995994616],
                        [-104.431444503884009, 21.719303573447409],
                        [-104.452636907387955, 21.660880966804523],
                        [-104.438923442527923, 21.602642700172314],
                        [-104.476171628659287, 21.5725609670897],
                        [-104.430411501407065, 21.520420315843538],
                        [-104.473882388179035, 21.470548361136608],
                        [-104.541995824098237, 21.467451251866127],
                        [-104.529422835308949, 21.516873324163544],
                        [-104.564119155075105, 21.522877617677015],
                        [-104.567175744507054, 21.572244641870768],
                        [-104.597717473135447, 21.608174380489704],
                        [-104.623154873583005, 21.674374760992659],
                        [-104.66836526310432, 21.736077264068015],
                        [-104.72221427036871, 21.844467792277921],
                        [-104.806662998106603, 21.838744694187429],
                        [-104.864279283867745, 21.77305897173197],
                        [-104.928997016480395, 21.774437907957278],
                        [-104.940619542034341, 21.812763405414341],
                        [-104.890810215783077, 21.85708410554243],
                        [-104.903788200799283, 21.886317524003104],
                        [-104.883648356152634, 21.934599306229632],
                        [-104.831644743319373, 21.981793866020382],
                        [-104.832561657785618, 22.034511144559637],
                        [-104.810811635349751, 22.072810694520062],
                        [-104.860670702244377, 22.142837187929693],
                        [-104.974080504801947, 22.156804269181734],
                        [-105.008274428257451, 22.262334756339868],
                        [-105.050776065484968, 22.329350853184923],
                        [-105.035700382491896, 22.358491188618313],
                        [-105.044595526790189, 22.427656885869716],
                        [-104.987912531761239, 22.498726586422659],
                        [-104.960525175120566, 22.505311442311886],
                        [-104.862493122717993, 22.607070491385734],
                        [-104.858397056579975, 22.64832670382572],
                        [-104.779187247568572, 22.642931440615346],
                        [-104.779679387729672, 22.603023889338367],
                        [-104.737053003556213, 22.558095662198603],
                        [-104.656495296919019, 22.541315464120515],
                        [-104.655291729054298, 22.462154658290515],
                        [-104.605437001718798, 22.445738477512762],
                        [-104.574589404934983, 22.394760028800317],
                        [-104.507398228358682, 22.346031530058777],
                        [-104.494135201735233, 22.376254993842149],
                        [-104.37151221068612, 22.421658643195236],
                        [-104.348842923472759, 22.409716641377646]
                    ]
                ]
            }
        },
        {
            "type": "Feature",
            "properties": { "color": "orange", "entidad_cvegeo": "18", "municipio_cvegeo": "18010", "entidad_nombre": "Rosamorada", "municipi_2": "SRID=6362;MULTIPOLYGON(((2188430 1152067.9,2188464.5821 1152050.0995,2188503.2921 1152054.4992,2188555.9654 1152032.9411,2188602.9244 1152017.5999,2188640.8166 1152005.9016,2188683.7189 1151979.8669,2188711.0493 1151970.1312,2188757.4938 1151957.3469,218", "municipi_3": 0 },
            "geometry": {
                "type": "Polygon",
                "coordinates": [
                    [
                        [-105.035700382491896, 22.358491188618313],
                        [-105.050776065484968, 22.329350853184923],
                        [-105.008274428257451, 22.262334756339868],
                        [-104.974080504801947, 22.156804269181734],
                        [-104.943862319931966, 22.10154977727462],
                        [-104.951618513201538, 21.99837130117637],
                        [-104.974181854003362, 21.950086829918042],
                        [-105.086401899258064, 21.940968255955909],
                        [-105.116811229473285, 21.967438069867541],
                        [-105.232619410459492, 21.949313574808471],
                        [-105.29836379328006, 21.963678084840275],
                        [-105.351233505623284, 22.003109152270017],
                        [-105.449436325485834, 21.995756449782892],
                        [-105.481714628911931, 22.023381991517148],
                        [-105.482285742381478, 22.07773495325339],
                        [-105.531434862894926, 22.088210702581854],
                        [-105.572808173877448, 22.136660583363341],
                        [-105.480421813675576, 22.199420110718382],
                        [-105.424500146895269, 22.201364749173415],
                        [-105.409516831388842, 22.241862281745721],
                        [-105.37277972974816, 22.255325062876999],
                        [-105.292726081499822, 22.240889254786506],
                        [-105.254364092564529, 22.266265283843541],
                        [-105.154360279091023, 22.255527105803303],
                        [-105.120587639339647, 22.284555578778559],
                        [-105.116177720354088, 22.348033803740233],
                        [-105.035700382491896, 22.358491188618313]
                    ]
                ]
            }
        },
        {
            "type": "Feature",
            "properties": { "color": "orange", "entidad_cvegeo": "18", "municipio_cvegeo": "18011", "entidad_nombre": "Ruíz", "municipi_2": "SRID=6362;MULTIPOLYGON(((2195798 1130025.9,2198208 1128901.1,2206437.8 1127781.9,2207779.1182 1126544.8456,2208011.5 1126330.6,2209352 1125099.5,2211161.0123 1120572.2493,2211402.5 1119967.9,2210114.3 1118265.9,2210040.2602 1118087.9253,2209086.3 1115793", "municipi_3": 0 },
            "geometry": {
                "type": "Polygon",
                "coordinates": [
                    [
                        [-104.903788200799283, 21.886317524003104],
                        [-105.062324588983827, 21.904086822944489],
                        [-105.098893297795087, 21.871987563787663],
                        [-105.201320181840828, 21.889318525350106],
                        [-105.232619410459492, 21.949313574808471],
                        [-105.116811229473285, 21.967438069867541],
                        [-105.086401899258064, 21.940968255955909],
                        [-104.974181854003362, 21.950086829918042],
                        [-104.951618513201538, 21.99837130117637],
                        [-104.943862319931966, 22.10154977727462],
                        [-104.974080504801947, 22.156804269181734],
                        [-104.860670702244377, 22.142837187929693],
                        [-104.810811635349751, 22.072810694520062],
                        [-104.832561657785618, 22.034511144559637],
                        [-104.831644743319373, 21.981793866020382],
                        [-104.883648356152634, 21.934599306229632],
                        [-104.903788200799283, 21.886317524003104]
                    ]
                ]
            }
        },
        {
            "type": "Feature",
            "properties": { "color": "orange", "entidad_cvegeo": "18", "municipio_cvegeo": "18012", "entidad_nombre": "San Blas", "municipi_2": "SRID=6362;MULTIPOLYGON(((2063661.3175 1045662.7878,2063656.7175 1045652.0878,2063647.8175 1045641.4878,2063646.4175 1045625.2878,2063659.9175 1045601.1878,2063679.8175 1045570.4878,2063704.3175 1045548.3878,2063727.7175 1045531.5878,2063759.9175 1045516.", "municipi_3": 0 },
            "geometry": {
                "type": "MultiPolygon",
                "coordinates": [
                    [
                        [
                            [-106.43484228382745, 21.494433572085782],
                            [-106.371935827875348, 21.481520333863887],
                            [-106.396739716707003, 21.419893842775569],
                            [-106.493596398288631, 21.46751551454371],
                            [-106.43484228382745, 21.494433572085782]
                        ]
                    ],
                    [
                        [
                            [-106.653347711371097, 21.693451661040651],
                            [-106.574188510254302, 21.681534893784715],
                            [-106.535483212545358, 21.656989973557728],
                            [-106.512056572922219, 21.597453203246054],
                            [-106.546226708928373, 21.563214851582888],
                            [-106.597701423133728, 21.581170056114274],
                            [-106.651380788893348, 21.65148647200056],
                            [-106.653347711371097, 21.693451661040651]
                        ]
                    ],
                    [
                        [
                            [-105.11061384213339, 21.676185097835774],
                            [-105.079672461424465, 21.675886426251022],
                            [-105.082454192424123, 21.618620869153581],
                            [-105.049629405630199, 21.595025889043406],
                            [-105.064755301267127, 21.525663976032728],
                            [-105.022238468895281, 21.489535161864691],
                            [-105.046661858015554, 21.458663855820443],
                            [-105.092492494867798, 21.44729507562263],
                            [-105.097279409337716, 21.405476398618948],
                            [-105.137302017583679, 21.394232640473291],
                            [-105.149539007788519, 21.355852463449096],
                            [-105.207520528184062, 21.340100684665064],
                            [-105.238994405508919, 21.361916935332459],
                            [-105.188279222967367, 21.446085547375169],
                            [-105.224761849280583, 21.521337403067044],
                            [-105.265501191630193, 21.512065430651617],
                            [-105.410562526529318, 21.599992781870274],
                            [-105.445563787050418, 21.6309495194315],
                            [-105.418882490347102, 21.662556068894357],
                            [-105.28259596487797, 21.725712048999196],
                            [-105.227886604076275, 21.687016373102633],
                            [-105.139438323138847, 21.704592080596186],
                            [-105.11061384213339, 21.676185097835774]
                        ]
                    ]
                ]
            }
        },
        {
            "type": "Feature",
            "properties": { "color": "orange", "entidad_cvegeo": "18", "municipio_cvegeo": "18013", "entidad_nombre": "San Pedro Lagunillas", "municipi_2": "SRID=6362;MULTIPOLYGON(((2215985.564 1037122.0506,2215967.247 1037083.4986,2215861.3431 1037011.6215,2215829.2501 1036975.6886,2215785.972 1036935.5256,2215714.3159 1036860.0086,2215755.7311 1036831.5936,2215825.484 1036764.3485,2215853.565 1036715.5796,", "municipi_3": 0 },
            "geometry": {
                "type": "Polygon",
                "coordinates": [
                    [
                        [-104.635061851036156, 21.175809588513019],
                        [-104.622073635026723, 21.134902938609002],
                        [-104.664622208468415, 21.12045788329737],
                        [-104.659760695418555, 21.081125701990281],
                        [-104.731663836147646, 21.012257337953841],
                        [-104.799565618643072, 21.015728823558305],
                        [-104.791780573239905, 21.035379041153032],
                        [-104.843403769491388, 21.090667195355294],
                        [-104.843669540362328, 21.14023257177956],
                        [-104.820361195496375, 21.189549782379562],
                        [-104.802470427555519, 21.326373100957301],
                        [-104.79669527687895, 21.32214177828439],
                        [-104.761764001998131, 21.323684403254955],
                        [-104.680274420536904, 21.218133082376163],
                        [-104.635061851036156, 21.175809588513019]
                    ]
                ]
            }
        },
        {
            "type": "Feature",
            "properties": { "color": "red", "entidad_cvegeo": "18", "municipio_cvegeo": "18014", "entidad_nombre": "Santa María del Oro", "municipi_2": "SRID=6362;MULTIPOLYGON(((2233019.6295 1067826.5618,2233155.5092 1067497.6673,2233273.43 1067126.5283,2233435.0336 1066842.7207,2233614.786 1066483.2803,2233758.9187 1066365.3903,2233951.0937 1066273.6971,2234117.0624 1066243.1341,2234204.4117 1066190.736", "municipi_3": 0 },
            "geometry": {
                "type": "Polygon",
                "coordinates": [
                    [
                        [-104.473882388179035, 21.470548361136608],
                        [-104.468871724787547, 21.435342867415244],
                        [-104.421442154880623, 21.412722346365449],
                        [-104.430569292880762, 21.379024947580749],
                        [-104.400136474495852, 21.3512630853545],
                        [-104.409456452458613, 21.28748019547999],
                        [-104.548214980140585, 21.196098322036168],
                        [-104.538838156343402, 21.17824924387374],
                        [-104.609045180379965, 21.126819822302515],
                        [-104.635061851036156, 21.175809588513019],
                        [-104.680274420536904, 21.218133082376163],
                        [-104.761764001998131, 21.323684403254955],
                        [-104.79669527687895, 21.32214177828439],
                        [-104.763971058529123, 21.394867420515538],
                        [-104.730435046552444, 21.443314710740783],
                        [-104.627973604293061, 21.510629641038179],
                        [-104.664411335342919, 21.547613304706918],
                        [-104.654224891065923, 21.586811468759937],
                        [-104.597717473135447, 21.608174380489704],
                        [-104.567175744507054, 21.572244641870768],
                        [-104.564119155075105, 21.522877617677015],
                        [-104.529422835308949, 21.516873324163544],
                        [-104.541995824098237, 21.467451251866127],
                        [-104.473882388179035, 21.470548361136608]
                    ]
                ]
            }
        },
        {
            "type": "Feature",
            "properties": { "color": "red", "entidad_cvegeo": "18", "municipio_cvegeo": "18015", "entidad_nombre": "Santiago Ixcuintla", "municipi_2": "SRID=6362;MULTIPOLYGON(((2100990.6528 1097850.424,2100998.7416 1097734.1644,2100995.8202 1097597.0317,2100987.506 1097454.7368,2100989.4157 1097296.3942,2100954.6999 1097154.6603,2100875.3834 1097151.0695,2100834.4897 1097215.2597,2100825.5022 1097289.32", "municipi_3": 0 },
            "geometry": {
                "type": "Polygon",
                "coordinates": [
                    [
                        [-105.588884006818873, 22.134485284759091],
                        [-105.473092844508201, 21.956422954211728],
                        [-105.402060231406765, 21.922814898474478],
                        [-105.364891481146515, 21.940505034262991],
                        [-105.355059147472957, 21.849606001961114],
                        [-105.297151808232201, 21.883864678841523],
                        [-105.201320181840828, 21.889318525350106],
                        [-105.098893297795087, 21.871987563787663],
                        [-105.062324588983827, 21.904086822944489],
                        [-104.903788200799283, 21.886317524003104],
                        [-104.890810215783077, 21.85708410554243],
                        [-104.940619542034341, 21.812763405414341],
                        [-104.928997016480395, 21.774437907957278],
                        [-104.934672115981286, 21.743416764582044],
                        [-104.994105246326626, 21.716505467218056],
                        [-105.080397476223467, 21.747433703625994],
                        [-105.122934751064491, 21.732696658315884],
                        [-105.11061384213339, 21.676185097835774],
                        [-105.139438323138847, 21.704592080596186],
                        [-105.227886604076275, 21.687016373102633],
                        [-105.28259596487797, 21.725712048999196],
                        [-105.418882490347102, 21.662556068894357],
                        [-105.445563787050418, 21.6309495194315],
                        [-105.530739562918157, 21.807894130998065],
                        [-105.638827508675959, 21.979259433468375],
                        [-105.653813228278452, 22.058431126642596],
                        [-105.645972234627948, 22.172002940066445],
                        [-105.662692036929471, 22.292269605229432],
                        [-105.636122325008799, 22.292356230627163],
                        [-105.622499949564556, 22.215249690847248],
                        [-105.588884006818873, 22.134485284759091]
                    ]
                ]
            }
        },
        {
            "type": "Feature",
            "properties": { "color": "red", "entidad_cvegeo": "18", "municipio_cvegeo": "18016", "entidad_nombre": "Tecuala", "municipi_2": "SRID=6362;MULTIPOLYGON(((2123085.5 1176951.4,2123122.8 1176942.9,2123201.3 1176956.1,2123268.8 1176964.5,2123315.5 1176965.6,2123362.8 1176977.3,2123482.5 1176599,2123649.8 1176135.4,2123771.3 1175849.5,2123917.5 1175726.1,2124062.8 1175560.3,2124213.5 1", "municipi_3": 0 },
            "geometry": {
                "type": "Polygon",
                "coordinates": [
                    [
                        [-105.682200251394661, 22.572121050262137],
                        [-105.670363455610129, 22.530869884049192],
                        [-105.499820703132215, 22.453876104690423],
                        [-105.409773134737392, 22.438461905372623],
                        [-105.396851115696293, 22.370187611304274],
                        [-105.356806981026708, 22.351360598910549],
                        [-105.325844934381749, 22.372462778917001],
                        [-105.266210877201203, 22.307492344665114],
                        [-105.254364092564529, 22.266265283843541],
                        [-105.292726081499822, 22.240889254786506],
                        [-105.37277972974816, 22.255325062876999],
                        [-105.409516831388842, 22.241862281745721],
                        [-105.424500146895269, 22.201364749173415],
                        [-105.480421813675576, 22.199420110718382],
                        [-105.572808173877448, 22.136660583363341],
                        [-105.588884006818873, 22.134485284759091],
                        [-105.622499949564556, 22.215249690847248],
                        [-105.636122325008799, 22.292356230627163],
                        [-105.662692036929471, 22.292269605229432],
                        [-105.693660026597513, 22.398892656818411],
                        [-105.758295242903372, 22.537676969444764],
                        [-105.701187252368285, 22.467690181509273],
                        [-105.67110577880203, 22.48156241806495],
                        [-105.700442062863104, 22.558455900605146],
                        [-105.682200251394661, 22.572121050262137]
                    ]
                ]
            }
        },
        {
            "type": "Feature",
            "properties": { "color": "red", "entidad_cvegeo": "18", "municipio_cvegeo": "18017", "entidad_nombre": "Tepic", "municipi_2": "SRID=6362;MULTIPOLYGON(((2218196.5 1094779,2218893.8 1094742.9,2219583.3 1094754.8,2220020.5879 1094640.7957,2220251.5 1094131.3,2220440.1131 1094084.3983,2220542.5908 1094012.307,2220599.524 1093898.4798,2220626.0889 1093805.5206,2220645.0684 1093653.74", "municipi_3": 0 },
            "geometry": {
                "type": "Polygon",
                "coordinates": [
                    [
                        [-104.597717473135447, 21.608174380489704],
                        [-104.654224891065923, 21.586811468759937],
                        [-104.664411335342919, 21.547613304706918],
                        [-104.627973604293061, 21.510629641038179],
                        [-104.730435046552444, 21.443314710740783],
                        [-104.763971058529123, 21.394867420515538],
                        [-104.847124232547699, 21.418685218265534],
                        [-104.864692035567955, 21.454517708257214],
                        [-105.022238468895281, 21.489535161864691],
                        [-105.064755301267127, 21.525663976032728],
                        [-105.049629405630199, 21.595025889043406],
                        [-105.082454192424123, 21.618620869153581],
                        [-105.079672461424465, 21.675886426251022],
                        [-105.11061384213339, 21.676185097835774],
                        [-105.122934751064491, 21.732696658315884],
                        [-105.080397476223467, 21.747433703625994],
                        [-104.994105246326626, 21.716505467218056],
                        [-104.934672115981286, 21.743416764582044],
                        [-104.928997016480395, 21.774437907957278],
                        [-104.864279283867745, 21.77305897173197],
                        [-104.806662998106603, 21.838744694187429],
                        [-104.72221427036871, 21.844467792277921],
                        [-104.66836526310432, 21.736077264068015],
                        [-104.623154873583005, 21.674374760992659],
                        [-104.597717473135447, 21.608174380489704]
                    ]
                ]
            }
        },
        {
            "type": "Feature",
            "properties": { "color": "red", "entidad_cvegeo": "18", "municipio_cvegeo": "18018", "entidad_nombre": "Tuxpan", "municipi_2": "SRID=6362;MULTIPOLYGON(((2133842.2461 1127360.6797,2133964.899 1127006.1816,2134146.4151 1126669.5586,2134504.4961 1125461.9016,2134981.689 1125102.5545,2135323.387 1125021.5926,2135535.668 1125082.0516,2135835.6041 1124926.9996,2136043.3371 1124827.6735", "municipi_3": 0 },
            "geometry": {
                "type": "Polygon",
                "coordinates": [
                    [
                        [-105.232619410459492, 21.949313574808471],
                        [-105.201320181840828, 21.889318525350106],
                        [-105.297151808232201, 21.883864678841523],
                        [-105.355059147472957, 21.849606001961114],
                        [-105.364891481146515, 21.940505034262991],
                        [-105.402060231406765, 21.922814898474478],
                        [-105.473092844508201, 21.956422954211728],
                        [-105.588884006818873, 22.134485284759091],
                        [-105.572808173877448, 22.136660583363341],
                        [-105.531434862894926, 22.088210702581854],
                        [-105.482285742381478, 22.07773495325339],
                        [-105.481714628911931, 22.023381991517148],
                        [-105.449436325485834, 21.995756449782892],
                        [-105.351233505623284, 22.003109152270017],
                        [-105.29836379328006, 21.963678084840275],
                        [-105.232619410459492, 21.949313574808471]
                    ]
                ]
            }
        },
        {
            "type": "Feature",
            "properties": { "color": "red", "entidad_cvegeo": "18", "municipio_cvegeo": "18019", "entidad_nombre": "La Yesca", "municipi_2": "SRID=6362;MULTIPOLYGON(((2270591.8208 1020167.5663,2270592.5009 1020183.5226,2270597.9264 1020230.4816,2270600.4395 1020280.7256,2270626 1020349.3,2270666.8 1020398.6,2270683.3 1020450.6,2270682.5 1020480.2,2270666.8 1020525.6,2270662.5 1020569.3,2270643", "municipi_3": 0 },
            "geometry": {
                "type": "Polygon",
                "coordinates": [
                    [
                        [-104.219397977401798, 21.176610587053055],
                        [-104.237576434831922, 21.202227332572111],
                        [-104.247677414572209, 21.226532174824879],
                        [-104.349850314686492, 21.274213390236572],
                        [-104.358733124825719, 21.326873703034664],
                        [-104.400136474495852, 21.3512630853545],
                        [-104.430569292880762, 21.379024947580749],
                        [-104.421442154880623, 21.412722346365449],
                        [-104.468871724787547, 21.435342867415244],
                        [-104.473882388179035, 21.470548361136608],
                        [-104.430411501407065, 21.520420315843538],
                        [-104.476171628659287, 21.5725609670897],
                        [-104.438923442527923, 21.602642700172314],
                        [-104.452636907387955, 21.660880966804523],
                        [-104.431444503884009, 21.719303573447409],
                        [-104.44811508448683, 21.748176995994616],
                        [-104.41009727441083, 21.855779736979521],
                        [-104.443933112585512, 21.928151494925938],
                        [-104.395899840181272, 21.939270966608657],
                        [-104.363722687279278, 21.974000917463666],
                        [-104.295791659662527, 22.00239038923117],
                        [-104.245257025360061, 21.966911611134876],
                        [-104.173655481971835, 21.970882892561537],
                        [-104.199967973246103, 21.894267029373111],
                        [-104.18917049796741, 21.849046821114523],
                        [-104.130381597940669, 21.79045131688876],
                        [-104.052615202437138, 21.794645950031263],
                        [-103.9777574890946, 21.771332435647057],
                        [-103.922595622150482, 21.770989236409065],
                        [-103.926516382990968, 21.736298157679474],
                        [-103.890440165749624, 21.699440435030262],
                        [-103.930249447436537, 21.641914436361571],
                        [-103.923183005564397, 21.590028048998253],
                        [-103.825776825025756, 21.494498547403381],
                        [-103.780071348105565, 21.49998177469087],
                        [-103.742030639401591, 21.44155783120036],
                        [-103.765418714974416, 21.386021054663757],
                        [-103.745689888602698, 21.363038893105806],
                        [-103.749584649218306, 21.336944123759466],
                        [-103.861889540201773, 21.248868362219586],
                        [-103.917898702145351, 21.231027776582824],
                        [-103.971275952382214, 21.256328684899703],
                        [-104.015754729404819, 21.208484103406285],
                        [-104.071788974004278, 21.188590774484176],
                        [-104.098177007555449, 21.200544514506809],
                        [-104.219397977401798, 21.176610587053055]
                    ]
                ]
            }
        },
        {
            "type": "Feature",
            "properties": { "color": "red", "entidad_cvegeo": "18", "municipio_cvegeo": "18020", "entidad_nombre": "Bahía de Banderas", "municipi_2": "SRID=6362;MULTIPOLYGON(((2189646.0832 999577.704999998,2189918.9625 998765.190900002,2190170.2881 998016.852899998,2191088.8814 997733.3979,2192624.194 997259.638599999,2193807.7473 996894.439199999,2193033.9023 994080.8299,2192821.0598 993306.960499998,", "municipi_3": 0 },
            "geometry": {
                "type": "Polygon",
                "coordinates": [
                    [
                        [-104.968821741583241, 20.90902595338363],
                        [-105.046804853274267, 20.934283861859925],
                        [-105.08796654495012, 20.923168682953897],
                        [-105.15262214154869, 20.862623851759164],
                        [-105.1733719118631, 20.767773591013334],
                        [-105.196961141210267, 20.777171027908224],
                        [-105.281000025185577, 20.671965765515846],
                        [-105.313478523179242, 20.729452894025314],
                        [-105.362776430370459, 20.762481823299208],
                        [-105.39864208457692, 20.735948320232563],
                        [-105.498698995475706, 20.767148812770319],
                        [-105.453869357827458, 20.870665127570312],
                        [-105.401726073221923, 20.931376651361369],
                        [-105.355605554748166, 20.960209818935432],
                        [-105.323034618994242, 20.931792351773922],
                        [-105.372314891963597, 20.870667066887666],
                        [-105.309073363886597, 20.872628261134377],
                        [-105.267571511991619, 20.926210574534199],
                        [-105.096654806748177, 20.973182041250631],
                        [-105.001697951688996, 20.986427733397665],
                        [-104.957415011420977, 20.952914032415315],
                        [-104.968821741583241, 20.90902595338363]
                    ]
                ]
            }
        },
        {
            "type": "Feature",
            "properties": { "color": "red", "entidad_cvegeo": "18", "municipio_cvegeo": "18003", "entidad_nombre": "Amatlán de Cañas", "municipi_2": "SRID=6362;MULTIPOLYGON(((2235376.7431 1000713.8549,2234862.3009 999842.829599999,2234732.09 999992.396699999,2234058.4679 999196.595600002,2233801.3329 996963.193700001,2235250.039 996111.810699999,2235398 996081.059999999,2235539 996035.059999999,223559", "municipi_3": 0 },
            "geometry": {
                "type": "Polygon",
                "coordinates": [
                    [
                        [-104.455418467176173, 20.985033722718821],
                        [-104.44049571032464, 20.942656414497598],
                        [-104.397449779807928, 20.969097300367423],
                        [-104.352046730691654, 20.935886740511474],
                        [-104.292339245428252, 20.848780872569691],
                        [-104.350402332129661, 20.811643967079469],
                        [-104.247837883839978, 20.72652387596052],
                        [-104.247333815009256, 20.689916101381183],
                        [-104.256801736197744, 20.603470371142613],
                        [-104.282010953990408, 20.628993353200485],
                        [-104.287073188127891, 20.687151047887468],
                        [-104.37662044495579, 20.74690980213202],
                        [-104.396622378221792, 20.780836786022174],
                        [-104.50321744975686, 20.841816385435042],
                        [-104.542852280491005, 20.911939574697534],
                        [-104.578166330194819, 20.933951167871886],
                        [-104.618894298607685, 20.923773745756058],
                        [-104.629088021829858, 20.92415907177627],
                        [-104.581174604133167, 20.96582344047216],
                        [-104.501145157622346, 20.967169650980534],
                        [-104.455418467176173, 20.985033722718821]
                    ]
                ]
            }
        },
        {
            "type": "Feature",
            "properties": { "color": "red", "entidad_cvegeo": "18", "municipio_cvegeo": "18004", "entidad_nombre": "Compostela", "municipi_2": "SRID=6362;MULTIPOLYGON(((2161247.1285 1008303.8573,2161278.5235 1008290.9841,2161293.0136 1008290.9841,2161303.4795 1008295.0066,2161326.8244 1008299.8348,2161342.9247 1008297.421,2161384.7857 1008286.1566,2161436.0483 1008277.505,2161483.0803 1008263.74", "municipi_3": 0 },
            "geometry": {
                "type": "Polygon",
                "coordinates": [
                    [
                        [-105.149539007788519, 21.355852463449096],
                        [-105.098871223575571, 21.316566133160581],
                        [-105.047769523128778, 21.342302219925752],
                        [-104.996089426341186, 21.337436907143033],
                        [-104.960299727554613, 21.305874242232818],
                        [-104.881396693968, 21.313105363691768],
                        [-104.870406251372629, 21.33498887844101],
                        [-104.802470427555519, 21.326373100957301],
                        [-104.820361195496375, 21.189549782379562],
                        [-104.843669540362328, 21.14023257177956],
                        [-104.843403769491388, 21.090667195355294],
                        [-104.791780573239905, 21.035379041153032],
                        [-104.799565618643072, 21.015728823558305],
                        [-104.867558583021975, 20.994589497453251],
                        [-104.899107764350532, 20.948514413754715],
                        [-104.968821741583241, 20.90902595338363],
                        [-104.957415011420977, 20.952914032415315],
                        [-105.001697951688996, 20.986427733397665],
                        [-105.096654806748177, 20.973182041250631],
                        [-105.267571511991619, 20.926210574534199],
                        [-105.309073363886597, 20.872628261134377],
                        [-105.372314891963597, 20.870667066887666],
                        [-105.323034618994242, 20.931792351773922],
                        [-105.355605554748166, 20.960209818935432],
                        [-105.317074823507866, 21.010328725533199],
                        [-105.267795986805467, 21.026334498032952],
                        [-105.232102391107773, 21.075371197675597],
                        [-105.216382288572831, 21.205007155458905],
                        [-105.238994405508919, 21.361916935332459],
                        [-105.207520528184062, 21.340100684665064],
                        [-105.149539007788519, 21.355852463449096]
                    ]
                ]
            }
        },
        {
            "type": "Feature",
            "properties": { "color": "orange", "entidad_cvegeo": "18", "municipio_cvegeo": "18001", "entidad_nombre": "Acaponeta", "municipi_2": "SRID=6362;MULTIPOLYGON(((2146961.5 1186487.6,2146948.5 1186417.4,2146966.3 1186375.4,2147005.8 1186325.4,2147029.8 1186315.6,2147080.5 1186251,2147080.8 1186209.4,2147061.8 1186188.9,2147015.8 1186198,2147000.3 1186179.9,2147002.7637 1186143.8312,2147551", "municipi_3": 0 },
            "geometry": {
                "type": "Polygon",
                "coordinates": [
                    [
                        [-105.07236894474174, 22.656499094179445],
                        [-105.007552742702998, 22.585671961960216],
                        [-104.987912531761239, 22.498726586422659],
                        [-105.044595526790189, 22.427656885869716],
                        [-105.035700382491896, 22.358491188618313],
                        [-105.116177720354088, 22.348033803740233],
                        [-105.120587639339647, 22.284555578778559],
                        [-105.154360279091023, 22.255527105803303],
                        [-105.254364092564529, 22.266265283843541],
                        [-105.266210877201203, 22.307492344665114],
                        [-105.325844934381749, 22.372462778917001],
                        [-105.356806981026708, 22.351360598910549],
                        [-105.396851115696293, 22.370187611304274],
                        [-105.409773134737392, 22.438461905372623],
                        [-105.499820703132215, 22.453876104690423],
                        [-105.670363455610129, 22.530869884049192],
                        [-105.682200251394661, 22.572121050262137],
                        [-105.631408635385782, 22.588753771988177],
                        [-105.598288230140355, 22.536671131356542],
                        [-105.539934774934011, 22.535593338209374],
                        [-105.460836806444405, 22.508568103123466],
                        [-105.434625533850905, 22.549984195670469],
                        [-105.463963102947531, 22.659238302674986],
                        [-105.405542379835197, 22.655940185406052],
                        [-105.383290979131161, 22.565310859599304],
                        [-105.26836225198079, 22.568693960397283],
                        [-105.245576427057813, 22.587382171175314],
                        [-105.202895084915284, 22.537177619738248],
                        [-105.097433016214168, 22.585736726445486],
                        [-105.07236894474174, 22.656499094179445]
                    ]
                ]
            }
        },
        {
            "type": "Feature",
            "properties": { "color": "orange", "entidad_cvegeo": "18", "municipio_cvegeo": "18002", "entidad_nombre": "Ahuacatlán", "municipi_2": "SRID=6362;MULTIPOLYGON(((2238054.8822 1020756.7837,2238730.9297 1020371.5099,2239098.8415 1020152.5238,2239522.7249 1019905.5924,2239730.7037 1019779.0435,2240079.921 1019598.9246,2240558.6702 1019364.994,2241521.8016 1018886.3023,2242065.9704 1018609.62", "municipi_3": 0 },
            "geometry": {
                "type": "Polygon",
                "coordinates": [
                    [
                        [-104.428620535558593, 21.055371623290419],
                        [-104.455418467176173, 20.985033722718821],
                        [-104.501145157622346, 20.967169650980534],
                        [-104.581174604133167, 20.96582344047216],
                        [-104.629088021829858, 20.92415907177627],
                        [-104.680999962688475, 20.94384061560762],
                        [-104.729362764094461, 20.983154141743515],
                        [-104.731663836147646, 21.012257337953841],
                        [-104.659760695418555, 21.081125701990281],
                        [-104.664622208468415, 21.12045788329737],
                        [-104.622073635026723, 21.134902938609002],
                        [-104.635061851036156, 21.175809588513019],
                        [-104.609045180379965, 21.126819822302515],
                        [-104.538838156343402, 21.17824924387374],
                        [-104.523855696578295, 21.129234797025013],
                        [-104.470042081097048, 21.106310363821081],
                        [-104.428620535558593, 21.055371623290419]
                    ]
                ]
            }
        }
    ]
}