{
    "type": "FeatureCollection",
    "name": "mun",
    "features": [{
            "type": "Feature",
            "properties": { "color": "red", "entidad_cvegeo": "01", "municipio_cvegeo": "01006", "entidad_nombre": "Pabellón de Arteaga", "municipi_2": "SRID=6362;MULTIPOLYGON(((2473996.6552 1129304.1141,2474217.8097 1129303.7684,2474240.0018 1129304.9094,2474259.6925 1129267.562,2474276.1507 1129236.2399,2474308.7089 1129206.0262,2474323.9288 1129191.8504,2474346.2762 1129134.4049,2474281.7139 1129070.6", "municipi_3": 0 },
            "geometry": {
                "type": "Polygon",
                "coordinates": [
                    [
                        [-102.204164892477053, 22.160907063937692],
                        [-102.216740979896855, 22.106292877509507],
                        [-102.191037382655509, 22.066101715436822],
                        [-102.27367128233476, 22.088103762324931],
                        [-102.310340279921661, 22.037159906302382],
                        [-102.337588086329959, 22.060116834636698],
                        [-102.41659129414542, 22.04043030086471],
                        [-102.418454613611999, 22.080480876496665],
                        [-102.353846790765857, 22.120644019637698],
                        [-102.303184406143544, 22.140456552900481],
                        [-102.25961118540323, 22.183070158301927],
                        [-102.204164892477053, 22.160907063937692]
                    ]
                ]
            }
        },
        {
            "type": "Feature",
            "properties": { "color": "red", "entidad_cvegeo": "01", "municipio_cvegeo": "01007", "entidad_nombre": "Rincón de Romos", "municipi_2": "SRID=6362;MULTIPOLYGON(((2476760.2314 1150329.0464,2476783.6335 1150315.2462,2476931.3444 1150343.5493,2476958.888 1150193.4391,2477020.6445 1150140.9908,2477119.4802 1150042.9433,2477222.044 1150050.2718,2477364.3416 1150069.4882,2477523.1467 1150090.84", "municipi_3": 0 },
            "geometry": {
                "type": "Polygon",
                "coordinates": [
                    [
                        [-102.189018327922, 22.362437833542764],
                        [-102.190927034499538, 22.317869925524615],
                        [-102.238737855314938, 22.297397562903765],
                        [-102.277330290095051, 22.225416870931323],
                        [-102.25961118540323, 22.183070158301927],
                        [-102.303184406143544, 22.140456552900481],
                        [-102.353846790765857, 22.120644019637698],
                        [-102.379930725686719, 22.138646225689691],
                        [-102.365257604340229, 22.222383496740278],
                        [-102.441977100138018, 22.238343592575951],
                        [-102.462173975740711, 22.322842738432001],
                        [-102.471187820686339, 22.336254875375193],
                        [-102.37844281134393, 22.360878577851807],
                        [-102.36237640301141, 22.328824652606848],
                        [-102.296677430538523, 22.289469867856596],
                        [-102.2461901485905, 22.298421382520072],
                        [-102.253200706633095, 22.374494503363177],
                        [-102.189018327922, 22.362437833542764]
                    ]
                ]
            }
        },
        {
            "type": "Feature",
            "properties": { "color": "red", "entidad_cvegeo": "01", "municipio_cvegeo": "01008", "entidad_nombre": "San José de Gracia", "municipi_2": "SRID=6362;MULTIPOLYGON(((2453254.178 1144800.5196,2453326.553 1143576.4235,2453363.325 1143573.0778,2453856.0858 1140923.0049,2453702.0812 1140820.1879,2453540.4676 1140723.6947,2453523.385 1140724.3199,2453347.775 1140730.7472,2453198.603 1140736.2069,2", "municipi_3": 0 },
            "geometry": {
                "type": "Polygon",
                "coordinates": [
                    [
                        [-102.353846790765857, 22.120644019637698],
                        [-102.418454613611999, 22.080480876496665],
                        [-102.41659129414542, 22.04043030086471],
                        [-102.453969432627446, 21.979518879169365],
                        [-102.576250565152378, 21.967780729786156],
                        [-102.620776943699582, 22.081471427444072],
                        [-102.693485344284369, 22.104722955086228],
                        [-102.675894507250618, 22.175572518724735],
                        [-102.641387118480679, 22.228447535794647],
                        [-102.67001704871403, 22.245702430747553],
                        [-102.668742842803425, 22.291871047018603],
                        [-102.612052182104037, 22.291508464399783],
                        [-102.527039335719692, 22.290899037625024],
                        [-102.462173975740711, 22.322842738432001],
                        [-102.441977100138018, 22.238343592575951],
                        [-102.365257604340229, 22.222383496740278],
                        [-102.379930725686719, 22.138646225689691],
                        [-102.353846790765857, 22.120644019637698]
                    ]
                ]
            }
        },
        {
            "type": "Feature",
            "properties": { "color": "red", "entidad_cvegeo": "01", "municipio_cvegeo": "01009", "entidad_nombre": "Tepezalá", "municipi_2": "SRID=6362;MULTIPOLYGON(((2481571.5296 1148075.0612,2481526.2606 1147900.9921,2481481.8736 1147730.3154,2483386.2684 1147520.5063,2483452.3272 1147513.2285,2483461.6481 1147512.0533,2483851.2754 1147467.5517,2483993.1529 1147450.4121,2484399.9112 1147401.", "municipi_3": 0 },
            "geometry": {
                "type": "Polygon",
                "coordinates": [
                    [
                        [-102.162134433997963, 22.348513940447102],
                        [-102.153230476892645, 22.29041021145548],
                        [-102.124110687940771, 22.2869564019656],
                        [-102.137007143074143, 22.191071541335919],
                        [-102.175732937796738, 22.129531740253313],
                        [-102.204164892477053, 22.160907063937692],
                        [-102.25961118540323, 22.183070158301927],
                        [-102.277330290095051, 22.225416870931323],
                        [-102.238737855314938, 22.297397562903765],
                        [-102.190927034499538, 22.317869925524615],
                        [-102.189018327922, 22.362437833542764],
                        [-102.162134433997963, 22.348513940447102]
                    ]
                ]
            }
        },
        {
            "type": "Feature",
            "properties": { "color": "red", "entidad_cvegeo": "01", "municipio_cvegeo": "01010", "entidad_nombre": "El Llano", "municipi_2": "SRID=6362;MULTIPOLYGON(((2496975.008 1115976.2368,2497225.0884 1115574.1693,2497589.0045 1115020.1404,2497691.5048 1114952.4732,2497731.8366 1114927.3529,2497688.4729 1114860.9771,2497647.7741 1114805.5046,2497625.1123 1114778.6928,2497604.663 1114758.31", "municipi_3": 0 },
            "geometry": {
                "type": "Polygon",
                "coordinates": [
                    [
                        [-101.897780213161511, 21.958387912720486],
                        [-101.880212613633475, 21.910149783600016],
                        [-101.94124308434688, 21.889486366268418],
                        [-102.03841751313206, 21.853198039968735],
                        [-102.064507640322788, 21.796204841079639],
                        [-102.131960633542832, 21.796648897045596],
                        [-102.176040905698201, 21.843824122518296],
                        [-102.131886726081461, 21.976838363113469],
                        [-102.097750661428194, 22.023247465554462],
                        [-102.036144415352567, 22.05226409630022],
                        [-101.987469955235127, 22.039166470884492],
                        [-101.897780213161511, 21.958387912720486]
                    ]
                ]
            }
        },
        {
            "type": "Feature",
            "properties": { "color": "red", "entidad_cvegeo": "01", "municipio_cvegeo": "01011", "entidad_nombre": "San Francisco de los Romo", "municipi_2": "SRID=6362;MULTIPOLYGON(((2484320.2067 1119000.0729,2484497.4839 1118886.2049,2484600.1474 1118896.1956,2484880.748 1118629.9158,2484847.367 1118576.3045,2484962.2427 1118484.2509,2484998.6972 1118442.1442,2485194.7772 1118026.1443,2485178.0236 1118002.13", "municipi_3": 0 },
            "geometry": {
                "type": "Polygon",
                "coordinates": [
                    [
                        [-102.140880681990623, 22.075342590636847],
                        [-102.153202227536923, 22.022529725374621],
                        [-102.207914599605928, 22.037947132344485],
                        [-102.248405801169994, 21.950014306558106],
                        [-102.278800115240486, 21.958413998730752],
                        [-102.265580961323096, 22.020658047709258],
                        [-102.310340279921661, 22.037159906302382],
                        [-102.27367128233476, 22.088103762324931],
                        [-102.191037382655509, 22.066101715436822],
                        [-102.140880681990623, 22.075342590636847]
                    ]
                ]
            }
        },
        {
            "type": "Feature",
            "properties": { "color": "orange", "entidad_cvegeo": "01", "municipio_cvegeo": "01001", "entidad_nombre": "Aguascalientes", "municipi_2": "SRID=6362;MULTIPOLYGON(((2489072.5045 1115771.5837,2489352.7744 1115447.0374,2489350.2389 1115438.7846,2489301.808 1115417.72,2489277.2691 1115432.1551,2489242.2926 1115471.2677,2489216.2814 1115479.8253,2489136.8411 1115449.1544,2489111.7676 1115411.783", "municipi_3": 0 },
            "geometry": {
                "type": "Polygon",
                "coordinates": [
                    [
                        [-102.097750661428194, 22.023247465554462],
                        [-102.131886726081461, 21.976838363113469],
                        [-102.176040905698201, 21.843824122518296],
                        [-102.131960633542832, 21.796648897045596],
                        [-102.064507640322788, 21.796204841079639],
                        [-102.104656843283351, 21.751850545767937],
                        [-102.142099724323273, 21.705374291733364],
                        [-102.214266758893558, 21.694818855221097],
                        [-102.226997137944863, 21.656809673778149],
                        [-102.295370790732605, 21.653098719520994],
                        [-102.325722068521827, 21.622266484534688],
                        [-102.384397722247485, 21.651887097605659],
                        [-102.41962845593487, 21.669406406430479],
                        [-102.542452433936703, 21.732604369437595],
                        [-102.583140426508848, 21.743858403302116],
                        [-102.540846311535972, 21.806359913004005],
                        [-102.456477811559736, 21.817588872989003],
                        [-102.420492944950752, 21.886419969950836],
                        [-102.346201750020725, 21.912351280559776],
                        [-102.278800115240486, 21.958413998730752],
                        [-102.248405801169994, 21.950014306558106],
                        [-102.207914599605928, 22.037947132344485],
                        [-102.153202227536923, 22.022529725374621],
                        [-102.140880681990623, 22.075342590636847],
                        [-102.097750661428194, 22.023247465554462]
                    ]
                ]
            }
        },
        {
            "type": "Feature",
            "properties": { "color": "orange", "entidad_cvegeo": "01", "municipio_cvegeo": "01002", "entidad_nombre": "Asientos", "municipi_2": "SRID=6362;MULTIPOLYGON(((2494680.2621 1141224.5059,2494749.9475 1141199.9966,2494832.058 1141208.0177,2494978.8492 1141276.5234,2495216.125 1141378.832,2495481.8425 1141490.247,2495542.4971 1141498.165,2495522.9151 1141560.3836,2495717.0648 1141639.2766,", "municipi_3": 0 },
            "geometry": {
                "type": "Polygon",
                "coordinates": [
                    [
                        [-101.999412686078543, 22.219506391063828],
                        [-102.000993080886644, 22.168110557220665],
                        [-102.025915187199118, 22.129771001775062],
                        [-101.967573933958022, 22.111202482306403],
                        [-101.861669820684256, 22.028883827066529],
                        [-101.863798714624934, 21.990015660024039],
                        [-101.897780213161511, 21.958387912720486],
                        [-101.987469955235127, 22.039166470884492],
                        [-102.036144415352567, 22.05226409630022],
                        [-102.097750661428194, 22.023247465554462],
                        [-102.140880681990623, 22.075342590636847],
                        [-102.191037382655509, 22.066101715436822],
                        [-102.216740979896855, 22.106292877509507],
                        [-102.204164892477053, 22.160907063937692],
                        [-102.175732937796738, 22.129531740253313],
                        [-102.137007143074143, 22.191071541335919],
                        [-102.124110687940771, 22.2869564019656],
                        [-102.037269639164791, 22.298975682788011],
                        [-101.999412686078543, 22.219506391063828]
                    ]
                ]
            }
        },
        {
            "type": "Feature",
            "properties": { "color": "orange", "entidad_cvegeo": "01", "municipio_cvegeo": "01003", "entidad_nombre": "Calvillo", "municipi_2": "SRID=6362;MULTIPOLYGON(((2429607.4543 1120262.2538,2429071.9005 1119486.5896,2428895.29 1119227.8566,2428991.2653 1119038.6081,2429021.9044 1118861.3699,2429036.4738 1118786.1465,2429394.5349 1118741.5266,2429517.6012 1118733.7156,2429584.7555 1118727.62", "municipi_3": 0 },
            "geometry": {
                "type": "Polygon",
                "coordinates": [
                    [
                        [-102.576250565152378, 21.967780729786156],
                        [-102.598873272255929, 21.864791490601949],
                        [-102.585287190255798, 21.82906572444907],
                        [-102.540846311535972, 21.806359913004005],
                        [-102.583140426508848, 21.743858403302116],
                        [-102.633493835301934, 21.767339457284766],
                        [-102.745299934684567, 21.720052307497745],
                        [-102.853345057090152, 21.799053148728298],
                        [-102.868446887172325, 21.860537716507395],
                        [-102.805461574108776, 21.996300398587678],
                        [-102.755805715359429, 22.073662074124012],
                        [-102.693485344284369, 22.104722955086228],
                        [-102.620776943699582, 22.081471427444072],
                        [-102.576250565152378, 21.967780729786156]
                    ]
                ]
            }
        },
        {
            "type": "Feature",
            "properties": { "color": "orange", "entidad_cvegeo": "01", "municipio_cvegeo": "01004", "entidad_nombre": "Cosío", "municipi_2": "SRID=6362;MULTIPOLYGON(((2470517.8241 1155028.5871,2470552.2489 1154982.9748,2470607.4324 1154988.2256,2470637.1987 1155017.0496,2470661.2814 1155046.4826,2470682.9843 1155073.0072,2470726.0087 1155097.5343,2470737.957 1155097.5343,2470753.5793 1155097.5", "municipi_3": 0 },
            "geometry": {
                "type": "Polygon",
                "coordinates": [
                    [
                        [-102.253200706633095, 22.374494503363177],
                        [-102.2461901485905, 22.298421382520072],
                        [-102.296677430538523, 22.289469867856596],
                        [-102.36237640301141, 22.328824652606848],
                        [-102.37844281134393, 22.360878577851807],
                        [-102.321364718191603, 22.388532641984],
                        [-102.298306843184065, 22.459589683051615],
                        [-102.289930738756595, 22.419983611424616],
                        [-102.253200706633095, 22.374494503363177]
                    ]
                ]
            }
        },
        {
            "type": "Feature",
            "properties": { "color": "orange", "entidad_cvegeo": "01", "municipio_cvegeo": "01005", "entidad_nombre": "Jesús María", "municipi_2": "SRID=6362;MULTIPOLYGON(((2465526.729 1114740.4656,2465752.546 1114688.3536,2465915.69 1114721.2826,2465947.287 1114688.5916,2465993.449 1114669.6576,2466083.9105 1114666.4715,2466144.495 1114664.3376,2466166.072 1114667.5796,2466250.999 1114687.8766,2466", "municipi_3": 0 },
            "geometry": {
                "type": "Polygon",
                "coordinates": [
                    [
                        [-102.310340279921661, 22.037159906302382],
                        [-102.265580961323096, 22.020658047709258],
                        [-102.278800115240486, 21.958413998730752],
                        [-102.346201750020725, 21.912351280559776],
                        [-102.420492944950752, 21.886419969950836],
                        [-102.456477811559736, 21.817588872989003],
                        [-102.540846311535972, 21.806359913004005],
                        [-102.585287190255798, 21.82906572444907],
                        [-102.598873272255929, 21.864791490601949],
                        [-102.576250565152378, 21.967780729786156],
                        [-102.453969432627446, 21.979518879169365],
                        [-102.41659129414542, 22.04043030086471],
                        [-102.337588086329959, 22.060116834636698],
                        [-102.310340279921661, 22.037159906302382]
                    ]
                ]
            }
        }
    ]
}