{
    "type": "FeatureCollection",
    "name": "mun",
    "features": [
        { "type": "Feature", "properties": { "color": "orange", "entidad_cvegeo": "06", "municipio_cvegeo": "06001", "entidad_nombre": "Armería", "municipi_2": "SRID=6362;MULTIPOLYGON(((2284849.4161 796832.4571,2284901.7981 796825.226399999,2284934.6463 796856.745099999,2284959.4643 796859.226,2284976.4391 796843.784000002,2284979.5869 796777.824000001,2284945.0617 796695.180799998,2285091.9452 796581.138099998,", "municipi_3": 0 }, "geometry": { "type": "Polygon", "coordinates": [
                    [
                        [-103.896251514941852, 19.09769791888279],
                        [-103.914475993270528, 19.05977084451489],
                        [-103.914798474090276, 18.995019281523085],
                        [-103.946245190188918, 18.955408402985363],
                        [-103.953190762670687, 18.881420995478539],
                        [-103.971041837481607, 18.864350452861011],
                        [-104.11994610386418, 18.944198466432695],
                        [-104.099866574629289, 18.987097088444532],
                        [-104.040886913766812, 19.012483168904001],
                        [-104.03128718671357, 19.069980404253201],
                        [-104.06787401311604, 19.101936546276811],
                        [-104.060851009163244, 19.151661631984631],
                        [-104.036780526866494, 19.151967441300698],
                        [-103.896251514941852, 19.09769791888279]
                    ]
                ] } },
        { "type": "Feature", "properties": { "color": "orange", "entidad_cvegeo": "06", "municipio_cvegeo": "06002", "entidad_nombre": "Colima", "municipi_2": "SRID=6362;MULTIPOLYGON(((2325161.6292 814903.238600001,2325549.896 814764.227600001,2325699.8732 814695.803100001,2325774.7129 814694.5869,2325953.8527 814481.138300002,2325921.935 814329.628600001,2325878.935 814118.825800002,2325947.4406 814002.6365000", "municipi_3": 0 }, "geometry": { "type": "Polygon", "coordinates": [
                    [
                        [-103.514133778211445, 19.217193084022579],
                        [-103.497630882220122, 19.174642148770396],
                        [-103.525582279525381, 19.077809759921315],
                        [-103.488505542908769, 19.027586746478711],
                        [-103.488594343204568, 18.964889150402296],
                        [-103.572453917424596, 18.872170710808579],
                        [-103.5811670050864, 18.875929062233105],
                        [-103.58542043421393, 18.977156577297968],
                        [-103.611786537610783, 19.028477549252322],
                        [-103.718204730071974, 19.088506208969875],
                        [-103.768649817452427, 19.068074399587044],
                        [-103.784529037399352, 19.078230352730913],
                        [-103.825840168581792, 19.135985700438287],
                        [-103.796751610436871, 19.148547200912432],
                        [-103.771867501913448, 19.237810482987129],
                        [-103.723673535528235, 19.258407564999697],
                        [-103.679171457160308, 19.325760240020657],
                        [-103.681191164980547, 19.27467845195039],
                        [-103.655002770181213, 19.213062906117251],
                        [-103.627577400818154, 19.204422574695755],
                        [-103.574266740485356, 19.229795818087418],
                        [-103.514133778211445, 19.217193084022579]
                    ]
                ] } },
        { "type": "Feature", "properties": { "color": "red", "entidad_cvegeo": "06", "municipio_cvegeo": "06003", "entidad_nombre": "Comala", "municipi_2": "SRID=6362;MULTIPOLYGON(((2330653 835833.440000001,2331902 834499.25,2331888 834461.879999999,2331736.3 834332.879999999,2331633.8 834231.559999999,2331542.8 834121.5,2331421.8 833946,2331352.3 833912.940000001,2331070.8 833898.25,2331021.3 833861.9400000", "municipi_3": 0 }, "geometry": { "type": "Polygon", "coordinates": [
                    [
                        [-103.618276501302773, 19.512518771440526],
                        [-103.612445606310047, 19.488858949824092],
                        [-103.668810098508672, 19.462237971613849],
                        [-103.67347225493144, 19.431439034961791],
                        [-103.702532110311978, 19.344724723432169],
                        [-103.748852018277077, 19.290305784053629],
                        [-103.832211650047796, 19.308560075570742],
                        [-103.854172963020716, 19.350972745223292],
                        [-103.89895028951787, 19.342983264247309],
                        [-103.881794372544135, 19.357312815053266],
                        [-103.899521593074454, 19.434547243189996],
                        [-103.834521264954333, 19.439841419231453],
                        [-103.820847427846203, 19.410512240830027],
                        [-103.716156456171191, 19.456958053237415],
                        [-103.690434352537622, 19.492031903118487],
                        [-103.618276501302773, 19.512518771440526]
                    ]
                ] } },
        { "type": "Feature", "properties": { "color": "red", "entidad_cvegeo": "06", "municipio_cvegeo": "06004", "entidad_nombre": "Coquimatlán", "municipi_2": "SRID=6362;MULTIPOLYGON(((2284964.5 813656.559999999,2285301.8 813235.5,2285471 813202.25,2285469.8 813131.379999999,2285476.8 813098.309999999,2285491.5 813070.190000001,2285503.8 813047.190000001,2285519 813036.809999999,2285534 813034,2285557 813043.75", "municipi_3": 0 }, "geometry": { "type": "Polygon", "coordinates": [
                    [
                        [-104.029257265969903, 19.292198084485975],
                        [-103.957086704515589, 19.290689557292819],
                        [-103.896435237822487, 19.254604778242303],
                        [-103.802061198479819, 19.264605803596147],
                        [-103.771867501913448, 19.237810482987129],
                        [-103.796751610436871, 19.148547200912432],
                        [-103.825840168581792, 19.135985700438287],
                        [-103.784529037399352, 19.078230352730913],
                        [-103.857339350249958, 19.045606603720461],
                        [-103.896251514941852, 19.09769791888279],
                        [-104.036780526866494, 19.151967441300698],
                        [-104.060851009163244, 19.151661631984631],
                        [-104.089602322997465, 19.197705004084479],
                        [-104.068766745835546, 19.245831059675528],
                        [-104.029257265969903, 19.292198084485975]
                    ]
                ] } },
        { "type": "Feature", "properties": { "color": "red", "entidad_cvegeo": "06", "municipio_cvegeo": "06005", "entidad_nombre": "Cuauhtémoc", "municipi_2": "SRID=6362;MULTIPOLYGON(((2331170.5 832691.5,2331152.8 832668.379999999,2331132.3 832657.809999999,2331131.8 832632.809999999,2331129.5 832593.75,2331125.8 832570.309999999,2331119 832547,2331118.5 832518.879999999,2331105.5 832497.190000001,2331100.5 832", "municipi_3": 0 }, "geometry": { "type": "Polygon", "coordinates": [
                    [
                        [-103.486473535534586, 19.337945204378727],
                        [-103.509522305825271, 19.241755818931363],
                        [-103.514133778211445, 19.217193084022579],
                        [-103.574266740485356, 19.229795818087418],
                        [-103.627577400818154, 19.204422574695755],
                        [-103.655002770181213, 19.213062906117251],
                        [-103.681191164980547, 19.27467845195039],
                        [-103.679171457160308, 19.325760240020657],
                        [-103.67347225493144, 19.431439034961791],
                        [-103.668810098508672, 19.462237971613849],
                        [-103.612445606310047, 19.488858949824092],
                        [-103.577209779433716, 19.41693451050422],
                        [-103.486473535534586, 19.337945204378727]
                    ]
                ] } },
        { "type": "Feature", "properties": { "color": "red", "entidad_cvegeo": "06", "municipio_cvegeo": "06006", "entidad_nombre": "Ixtlahuacán", "municipi_2": "SRID=6362;MULTIPOLYGON(((2319517.9819 789162.431000002,2319531.2399 789162.027199998,2319546.531 789162.229600001,2319635.5962 789151.320599999,2323378.008 787594.284600001,2323267.762 787371.246599998,2323355.7995 787320.9844,2323369.6406 787313.0823,23", "municipi_3": 0 }, "geometry": { "type": "Polygon", "coordinates": [
                    [
                        [-103.5811670050864, 18.875929062233105],
                        [-103.640572370814809, 18.867244497676012],
                        [-103.624624232755252, 18.82610943616891],
                        [-103.694171704595519, 18.865463624142862],
                        [-103.720744745960658, 18.901577986496104],
                        [-103.769220644286904, 18.911010323697738],
                        [-103.783978970418985, 18.956112775243831],
                        [-103.768649817452427, 19.068074399587044],
                        [-103.718204730071974, 19.088506208969875],
                        [-103.611786537610783, 19.028477549252322],
                        [-103.58542043421393, 18.977156577297968],
                        [-103.5811670050864, 18.875929062233105]
                    ]
                ] } },
        { "type": "Feature", "properties": { "color": "red", "entidad_cvegeo": "06", "municipio_cvegeo": "06007", "entidad_nombre": "Manzanillo", "municipi_2": "SRID=6362;MULTIPOLYGON(((2239027.5891 792139.979400001,2239037.5157 792135.282299999,2239039.2323 792137.1534,2239043.2614 792141.5451,2239047.9631 792138.935600001,2239062.5914 792140.5013,2239077.2185 792132.150899999,2239084.8738 792128.009199999,2239", "municipi_3": 0 }, "geometry": { "type": "Polygon", "coordinates": [
                    [
                        [-104.22326891635042, 19.301685594508662],
                        [-104.122556497090727, 19.258124696460445],
                        [-104.068766745835546, 19.245831059675528],
                        [-104.089602322997465, 19.197705004084479],
                        [-104.060851009163244, 19.151661631984631],
                        [-104.06787401311604, 19.101936546276811],
                        [-104.03128718671357, 19.069980404253201],
                        [-104.040886913766812, 19.012483168904001],
                        [-104.099866574629289, 18.987097088444532],
                        [-104.11994610386418, 18.944198466432695],
                        [-104.283572714413395, 19.008702120928007],
                        [-104.320393539143495, 19.09505930221782],
                        [-104.37247886739442, 19.119722094242661],
                        [-104.43048391568793, 19.093065172759616],
                        [-104.489382042548414, 19.124553156196082],
                        [-104.690227277514097, 19.176544535023751],
                        [-104.576937615819929, 19.180204607347331],
                        [-104.570437416312046, 19.214805750679787],
                        [-104.523319386640779, 19.260372379613912],
                        [-104.474009150851259, 19.236548133136722],
                        [-104.439165015393314, 19.278047563151286],
                        [-104.357942971172804, 19.270569287093398],
                        [-104.247690986991898, 19.312178901185188],
                        [-104.22326891635042, 19.301685594508662]
                    ]
                ] } },
        { "type": "Feature", "properties": { "color": "orange", "entidad_cvegeo": "06", "municipio_cvegeo": "06008", "entidad_nombre": "Minatitlán", "municipi_2": "SRID=6362;MULTIPOLYGON(((2286838.3 833188.25,2287360 832948.129999999,2287476.8 832948.690000001,2287479.8 832948.690000001,2287564 832941.5,2287638.8 832911.809999999,2287740 832867.809999999,2287891.5 832797.5,2288001.3 832724.75,2288131.8 832650.19000", "municipi_3": 0 }, "geometry": { "type": "Polygon", "coordinates": [
                    [
                        [-103.899521593074454, 19.434547243189996],
                        [-103.881794372544135, 19.357312815053266],
                        [-103.89895028951787, 19.342983264247309],
                        [-103.961173893373299, 19.362092434450876],
                        [-104.026072936446766, 19.314294345026166],
                        [-104.029257265969903, 19.292198084485975],
                        [-104.068766745835546, 19.245831059675528],
                        [-104.122556497090727, 19.258124696460445],
                        [-104.22326891635042, 19.301685594508662],
                        [-104.122905860671779, 19.320998376369435],
                        [-104.133344117285972, 19.35374583721455],
                        [-104.090226210753443, 19.393024797014245],
                        [-104.071485510131239, 19.483532993618418],
                        [-104.061725062571824, 19.49770293182155],
                        [-103.899521593074454, 19.434547243189996]
                    ]
                ] } },
        { "type": "Feature", "properties": { "color": "orange", "entidad_cvegeo": "06", "municipio_cvegeo": "06009", "entidad_nombre": "Tecomán", "municipi_2": "SRID=6362;MULTIPOLYGON(((1158658.7249 767185.324200001,1159130.9249 767072.954500001,1159518.5249 767099.574700002,1159907.7249 767138.764899999,1160432.4249 767134.895199999,1160902.9249 767009.895500001,1161437.2249 767081.575800002,1161881.4249 767049", "municipi_3": 0 }, "geometry": { "type": "MultiPolygon", "coordinates": [
                    [
                        [
                            [-110.988188430921809, 18.853505613102591],
                            [-110.919699886403777, 18.791241161030221],
                            [-110.921942801330374, 18.726108782792011],
                            [-110.956779738224625, 18.723398323597529],
                            [-111.019113660771097, 18.749147020589159],
                            [-111.048412338849587, 18.794329314195604],
                            [-110.988188430921809, 18.853505613102591]
                        ]
                    ],
                    [
                        [
                            [-103.784529037399352, 19.078230352730913],
                            [-103.768649817452427, 19.068074399587044],
                            [-103.783978970418985, 18.956112775243831],
                            [-103.769220644286904, 18.911010323697738],
                            [-103.720744745960658, 18.901577986496104],
                            [-103.694171704595519, 18.865463624142862],
                            [-103.624624232755252, 18.82610943616891],
                            [-103.637468347058899, 18.783527272077361],
                            [-103.697570792375075, 18.755922550546636],
                            [-103.7377654989902, 18.684155820612382],
                            [-103.803418940833396, 18.748910232839776],
                            [-103.947504145227924, 18.842092251028433],
                            [-103.971041837481607, 18.864350452861011],
                            [-103.953190762670687, 18.881420995478539],
                            [-103.946245190188918, 18.955408402985363],
                            [-103.914798474090276, 18.995019281523085],
                            [-103.914475993270528, 19.05977084451489],
                            [-103.896251514941852, 19.09769791888279],
                            [-103.857339350249958, 19.045606603720461],
                            [-103.784529037399352, 19.078230352730913]
                        ]
                    ]
                ] } },
        { "type": "Feature", "properties": { "color": "orange", "entidad_cvegeo": "06", "municipio_cvegeo": "06010", "entidad_nombre": "Villa de Álvarez", "municipi_2": "SRID=6362;MULTIPOLYGON(((2323045.3201 827058.6906,2323136.1678 826969.653200001,2323221.7248 826980.712000001,2323302.9148 826930.5121,2323455.6009 826905.608800001,2323662.5 827055.75,2323682.5 827073.190000001,2323713.8 827088.25,2323747.3 827106.19000", "municipi_3": 0 }, "geometry": { "type": "Polygon", "coordinates": [
                    [
                        [-103.67347225493144, 19.431439034961791],
                        [-103.679171457160308, 19.325760240020657],
                        [-103.723673535528235, 19.258407564999697],
                        [-103.771867501913448, 19.237810482987129],
                        [-103.802061198479819, 19.264605803596147],
                        [-103.896435237822487, 19.254604778242303],
                        [-103.957086704515589, 19.290689557292819],
                        [-104.029257265969903, 19.292198084485975],
                        [-104.026072936446766, 19.314294345026166],
                        [-103.961173893373299, 19.362092434450876],
                        [-103.89895028951787, 19.342983264247309],
                        [-103.854172963020716, 19.350972745223292],
                        [-103.832211650047796, 19.308560075570742],
                        [-103.748852018277077, 19.290305784053629],
                        [-103.702532110311978, 19.344724723432169],
                        [-103.67347225493144, 19.431439034961791]
                    ]
                ] } }
    ]
}