{
    "type": "FeatureCollection",
    "name": "mun",
    "features": [{
            "type": "Feature",
            "properties": { "color": "orange", "entidad_cvegeo": "11", "municipio_cvegeo": "11028", "entidad_nombre": "Salvatierra", "municipi_2": "SRID=6362;MULTIPOLYGON(((2617663.7888 928263.491099998,2617999.1961 928187.1281,2619208.991 928272.704300001,2619420.7744 928196.3288,2619530.7872 928189.5207,2619538.3895 928242.417300001,2619549.1696 928317.4285,2619631.8405 928305.193100002,2619684.38", "municipi_3": 0 },
            "geometry": {
                "type": "Polygon",
                "coordinates": [
                    [
                        [-100.827598372020375, 20.352823509685475],
                        [-100.836515985808276, 20.259210768559939],
                        [-100.789609084497656, 20.232126137495747],
                        [-100.781731242179205, 20.173086191841321],
                        [-100.820274222080243, 20.141215277732233],
                        [-100.896709081460116, 20.109419166404432],
                        [-100.893727317060126, 20.063832181477792],
                        [-100.970278237151931, 20.005170619828991],
                        [-101.013986569569667, 20.045711286311381],
                        [-101.011785397122765, 20.081523168733224],
                        [-101.000358263570632, 20.109446249021751],
                        [-100.947476863651119, 20.133480976397287],
                        [-100.94157467760607, 20.187066401469412],
                        [-101.020098521471127, 20.200131000746641],
                        [-101.046690753781391, 20.211675914363987],
                        [-101.041786116679717, 20.277496988323509],
                        [-101.005629361172069, 20.285515984395872],
                        [-100.984247892590105, 20.32835683408447],
                        [-100.880155533348315, 20.35499039137801],
                        [-100.827598372020375, 20.352823509685475]
                    ]
                ]
            }
        },
        {
            "type": "Feature",
            "properties": { "color": "orange", "entidad_cvegeo": "11", "municipio_cvegeo": "11029", "entidad_nombre": "San Diego de la Unión", "municipi_2": "SRID=6362;MULTIPOLYGON(((2622147.8479 1065705.1164,2622679.983 1064681.6735,2622685.4834 1064684.0797,2622966.6835 1064807.0952,2623052.043 1064884.2118,2623248.1918 1064876.7499,2623420.4745 1064901.6284,2623532.9232 1064899.8064,2624072.26 1064959.1705", "municipi_3": 0 },
            "geometry": {
                "type": "Polygon",
                "coordinates": [
                    [
                        [-100.751342182344686, 21.580603661041216],
                        [-100.702832817880804, 21.546125594347611],
                        [-100.704185194445472, 21.457367418031634],
                        [-100.677987588550991, 21.393473368689616],
                        [-100.598390034017299, 21.391396445742885],
                        [-100.607873020721229, 21.334285227443711],
                        [-100.693096314583798, 21.335550700070943],
                        [-100.721418080072553, 21.297874119226808],
                        [-100.765669765212948, 21.319416525619715],
                        [-100.824364799853839, 21.314994187636707],
                        [-100.85866857879185, 21.334359566964512],
                        [-100.961852008944732, 21.306734878250836],
                        [-101.003586416213494, 21.333603496031262],
                        [-101.040517818299008, 21.326024786071837],
                        [-101.023704340101887, 21.421529388493386],
                        [-101.039554570341409, 21.445469841954029],
                        [-100.983383337726934, 21.537435782465831],
                        [-100.933903353429429, 21.561854855418321],
                        [-100.930077514127944, 21.598694938690443],
                        [-100.872573290049019, 21.594327976117896],
                        [-100.857612097525717, 21.618959848245726],
                        [-100.751342182344686, 21.580603661041216]
                    ]
                ]
            }
        },
        {
            "type": "Feature",
            "properties": { "color": "orange", "entidad_cvegeo": "11", "municipio_cvegeo": "11030", "entidad_nombre": "San Felipe", "municipi_2": "SRID=6362;MULTIPOLYGON(((2602612.2711 1058432.1889,2602550.5419 1057767.5336,2602529.6479 1057542.5621,2602175.5112 1053690.8986,2600436.1122 1053136.2422,2601188.5258 1052249.7969,2601145.3691 1052215.4796,2601141.01 1052212.0133,2601114.4373 1052167.41", "municipi_3": 0 },
            "geometry": {
                "type": "Polygon",
                "coordinates": [
                    [
                        [-101.040517818299008, 21.326024786071837],
                        [-101.051179716070379, 21.288592834732651],
                        [-101.105587812716536, 21.257976564296822],
                        [-101.184785646693399, 21.233509472766563],
                        [-101.203876857870256, 21.207644179021134],
                        [-101.295725167264564, 21.202812113367518],
                        [-101.332243032421886, 21.150255126547577],
                        [-101.38669669087308, 21.138488067705559],
                        [-101.372249640294328, 21.177028151956033],
                        [-101.440147857926576, 21.251873574228984],
                        [-101.528213734084602, 21.255447142984],
                        [-101.586117576207457, 21.309957632417643],
                        [-101.645885186007419, 21.328334459265569],
                        [-101.678941825918528, 21.393436270775151],
                        [-101.570415624822786, 21.418535751286086],
                        [-101.500238677868012, 21.379092104965647],
                        [-101.433392152631413, 21.417193024778605],
                        [-101.371147352987634, 21.397455293355133],
                        [-101.328716735790849, 21.409698436987952],
                        [-101.339147866477504, 21.463672219253475],
                        [-101.316635093914371, 21.50718354686521],
                        [-101.321942206776114, 21.555933465831679],
                        [-101.363533327154727, 21.561395925835566],
                        [-101.33819762116778, 21.677765386208499],
                        [-101.438426448720719, 21.666569806135588],
                        [-101.443374292154687, 21.735870688113351],
                        [-101.422708060417747, 21.824965118871049],
                        [-101.365273663520355, 21.839416718617382],
                        [-101.29280526373077, 21.81389565287251],
                        [-101.217152336813299, 21.816077033220754],
                        [-101.161266982567781, 21.757505921550631],
                        [-101.059247966706366, 21.765520740882419],
                        [-100.981974366817965, 21.753527359854061],
                        [-100.902375105299683, 21.682018344106389],
                        [-100.853039695481726, 21.674289933093018],
                        [-100.857612097525717, 21.618959848245726],
                        [-100.872573290049019, 21.594327976117896],
                        [-100.930077514127944, 21.598694938690443],
                        [-100.933903353429429, 21.561854855418321],
                        [-100.983383337726934, 21.537435782465831],
                        [-101.039554570341409, 21.445469841954029],
                        [-101.023704340101887, 21.421529388493386],
                        [-101.040517818299008, 21.326024786071837]
                    ]
                ]
            }
        },
        {
            "type": "Feature",
            "properties": { "color": "orange", "entidad_cvegeo": "11", "municipio_cvegeo": "11031", "entidad_nombre": "San Francisco del Rincón", "municipi_2": "SRID=6362;MULTIPOLYGON(((2517184.7112 1004864.9789,2517228.5472 1004805.2437,2517305.7469 1004817.6089,2517344.0336 1004820.3409,2517396.5085 1004824.0852,2517408.8332 1004821.8029,2517418.6195 1004886.0665,2517435.3241 1004898.2656,2517537.719 1004873.1", "municipi_3": 0 },
            "geometry": {
                "type": "Polygon",
                "coordinates": [
                    [
                        [-101.785440483200532, 21.048922191690135],
                        [-101.783831902602728, 21.016250161735222],
                        [-101.668373112429563, 20.994209296553564],
                        [-101.671417923387921, 20.951037123221177],
                        [-101.712797850560975, 20.954535638606885],
                        [-101.697008255135998, 20.894047543437342],
                        [-101.708662358601686, 20.810573053027635],
                        [-101.734845331052611, 20.794869009306858],
                        [-101.770750738860016, 20.799644284120092],
                        [-101.861090505465853, 20.84633301691202],
                        [-101.903018542911454, 20.826248983158102],
                        [-101.856539542452737, 20.997021723514901],
                        [-101.869658204791037, 21.036839306493818],
                        [-101.785440483200532, 21.048922191690135]
                    ]
                ]
            }
        },
        {
            "type": "Feature",
            "properties": { "color": "orange", "entidad_cvegeo": "11", "municipio_cvegeo": "11032", "entidad_nombre": "San José Iturbide", "municipi_2": "SRID=6362;MULTIPOLYGON(((2659674.7201 1011489.3373,2659696.8982 1011418.7741,2659801.1724 1011426.9262,2659989.693 1011405.3049,2660105.1249 1011392.066,2660226.2242 1011378.1772,2660588.7888 1011338.8504,2660668.4311 1011330.0593,2660963.6005 1011297.47", "municipi_3": 0 },
            "geometry": {
                "type": "Polygon",
                "coordinates": [
                    [
                        [-100.293325248092003, 21.092332476204792],
                        [-100.254165290160287, 21.044328823815039],
                        [-100.245544156208581, 20.963328958627308],
                        [-100.265543235147362, 20.929247382597925],
                        [-100.333590802925187, 20.890728475770334],
                        [-100.412791446843215, 20.887806995938309],
                        [-100.47223355940568, 20.928415209083877],
                        [-100.510539482540807, 20.970128082160677],
                        [-100.528681310466908, 21.07112347573074],
                        [-100.458995482271632, 21.114956933063223],
                        [-100.454859031645555, 21.105598114417589],
                        [-100.293325248092003, 21.092332476204792]
                    ]
                ]
            }
        },
        {
            "type": "Feature",
            "properties": { "color": "orange", "entidad_cvegeo": "11", "municipio_cvegeo": "11033", "entidad_nombre": "San Luis de la Paz", "municipi_2": "SRID=6362;MULTIPOLYGON(((2671264.4239 1075552.3321,2671327.0954 1075521.9927,2671363.3748 1075527.704,2671482.789 1075526.3862,2671521.5119 1075545.0883,2671594.2875 1075538.0986,2671622.798 1075527.967,2671789.9068 1075493.2567,2671963.9441 1075438.2945", "municipi_3": 0 },
            "geometry": {
                "type": "Polygon",
                "coordinates": [
                    [
                        [-100.277142911449829, 21.686516236365481],
                        [-100.223184085516294, 21.665634585151722],
                        [-100.206019746860022, 21.612997187427617],
                        [-100.214198114338458, 21.567778358857428],
                        [-100.262044122523307, 21.453329511695294],
                        [-100.344106298449958, 21.423197565841249],
                        [-100.366000609469666, 21.372672563988552],
                        [-100.348850142788493, 21.329845555240329],
                        [-100.372373169220282, 21.300599684436158],
                        [-100.351939363827157, 21.210803381547354],
                        [-100.432463593318957, 21.175427569275996],
                        [-100.484884190104168, 21.178693448965447],
                        [-100.458995482271632, 21.114956933063223],
                        [-100.528681310466908, 21.07112347573074],
                        [-100.566557676363558, 21.100976427962081],
                        [-100.636555187143941, 21.108584121122821],
                        [-100.693052447941454, 21.196011288784053],
                        [-100.655814305840124, 21.233466143251349],
                        [-100.721418080072553, 21.297874119226808],
                        [-100.693096314583798, 21.335550700070943],
                        [-100.607873020721229, 21.334285227443711],
                        [-100.598390034017299, 21.391396445742885],
                        [-100.677987588550991, 21.393473368689616],
                        [-100.704185194445472, 21.457367418031634],
                        [-100.702832817880804, 21.546125594347611],
                        [-100.751342182344686, 21.580603661041216],
                        [-100.657456071130184, 21.52471797665202],
                        [-100.584427737778853, 21.52230642722991],
                        [-100.533950021378985, 21.542326823577937],
                        [-100.464273921582816, 21.54316816157727],
                        [-100.471453126513495, 21.587570320548455],
                        [-100.451282031214149, 21.666349063916481],
                        [-100.277142911449829, 21.686516236365481]
                    ]
                ]
            }
        },
        {
            "type": "Feature",
            "properties": { "color": "orange", "entidad_cvegeo": "11", "municipio_cvegeo": "11034", "entidad_nombre": "Santa Catarina", "municipi_2": "SRID=6362;MULTIPOLYGON(((2696710.3203 1025594.1896,2696720.6085 1025559.0493,2696759.0025 1025620.749,2696768.1175 1025635.3961,2696811.7267 1025649.4739,2696830.5836 1025657.689,2696878.229 1025643.8886,2696891.7967 1025644.1875,2696902.9528 1025650.95,", "municipi_3": 0 },
            "geometry": {
                "type": "Polygon",
                "coordinates": [
                    [
                        [-100.011085733379559, 21.189464339378159],
                        [-100.027543070260862, 21.100253018516241],
                        [-100.014702001501135, 21.05097118675301],
                        [-100.074161094615476, 21.058496012881115],
                        [-100.071122885454116, 21.091044585197778],
                        [-100.152474211401241, 21.15611746044409],
                        [-100.130263372988196, 21.215541784625099],
                        [-100.072083881016368, 21.22919510379305],
                        [-100.011085733379559, 21.189464339378159]
                    ]
                ]
            }
        },
        {
            "type": "Feature",
            "properties": { "color": "orange", "entidad_cvegeo": "11", "municipio_cvegeo": "11035", "entidad_nombre": "Santa Cruz de Juventino Rosas", "municipi_2": "SRID=6362;MULTIPOLYGON(((2599933.2965 977301.3072,2599983.3379 977272.697799999,2599997.7198 977265.0253,2600104.9749 977245.784600001,2600122.7873 977242.8627,2600120.5506 977159.684999999,2600116.4736 977078.257599998,2600112.451 976986.250799999,26001", "municipi_3": 0 },
            "geometry": {
                "type": "Polygon",
                "coordinates": [
                    [
                        [-100.988946014512962, 20.788710268133716],
                        [-100.95677990624381, 20.697550269176645],
                        [-100.884419138628573, 20.698201544667175],
                        [-100.860583368635844, 20.661151665145542],
                        [-100.874059193003575, 20.585059159403393],
                        [-100.91077632372324, 20.56958371729322],
                        [-100.979624352197106, 20.591654717206193],
                        [-101.022902071909229, 20.561016138062222],
                        [-101.062846427280562, 20.563240025733567],
                        [-101.079295467686862, 20.671472589179722],
                        [-101.102749040490977, 20.742621874238203],
                        [-101.067074746098683, 20.813922227223905],
                        [-101.033098601296786, 20.784782586503361],
                        [-100.988946014512962, 20.788710268133716]
                    ]
                ]
            }
        },
        {
            "type": "Feature",
            "properties": { "color": "orange", "entidad_cvegeo": "11", "municipio_cvegeo": "11036", "entidad_nombre": "Santiago Maravatío", "municipi_2": "SRID=6362;MULTIPOLYGON(((2601542.8351 906778.9848,2601540.2411 906814.9419,2601540.2411 906850.2709,2601656.021 907150.3402,2601631.9729 907172.519200001,2601630.5264 907241.7139,2601626.9448 907253.881999999,2601622.9851 907267.3347,2601625.4567 907276.", "municipi_3": 0 },
            "geometry": {
                "type": "Polygon",
                "coordinates": [
                    [
                        [-101.020098521471127, 20.200131000746641],
                        [-100.94157467760607, 20.187066401469412],
                        [-100.947476863651119, 20.133480976397287],
                        [-101.000358263570632, 20.109446249021751],
                        [-101.052955396931964, 20.129959906884046],
                        [-101.020098521471127, 20.200131000746641]
                    ]
                ]
            }
        },
        {
            "type": "Feature",
            "properties": { "color": "orange", "entidad_cvegeo": "11", "municipio_cvegeo": "11024", "entidad_nombre": "Pueblo Nuevo", "municipi_2": "SRID=6362;MULTIPOLYGON(((2562271.8179 945681.590700001,2562271.0669 945702.265999999,2562233.9134 946064.203400001,2562205.2491 946343.4421,2562148.0479 946900.678599998,2562134.6041 946897.328499999,2562123.525 947050.184500001,2562143.2153 947051.00070", "municipi_3": 0 },
            "geometry": {
                "type": "Polygon",
                "coordinates": [
                    [
                        [-101.400522135434443, 20.515820560801426],
                        [-101.406628604713831, 20.560809304399843],
                        [-101.37344151850175, 20.582210894040376],
                        [-101.311978787031364, 20.579961949796747],
                        [-101.313226730579615, 20.53939397755105],
                        [-101.367035248578773, 20.504240861178101],
                        [-101.400522135434443, 20.515820560801426]
                    ]
                ]
            }
        },
        {
            "type": "Feature",
            "properties": { "color": "orange", "entidad_cvegeo": "11", "municipio_cvegeo": "11025", "entidad_nombre": "Purísima del Rincón", "municipi_2": "SRID=6362;MULTIPOLYGON(((2519626.7944 1010342.8333,2519564.105 1010216.1213,2519554.4772 1010130.7753,2519554.4772 1010024.9919,2519571.3259 1009979.3131,2519615.8848 1009936.4827,2519544.6452 1009736.4573,2519526.7794 1009686.2943,2519516.6819 1009657.9", "municipi_3": 0 },
            "geometry": {
                "type": "Polygon",
                "coordinates": [
                    [
                        [-101.785440483200532, 21.048922191690135],
                        [-101.869658204791037, 21.036839306493818],
                        [-101.856539542452737, 20.997021723514901],
                        [-101.903018542911454, 20.826248983158102],
                        [-101.996030531060384, 20.835213265489962],
                        [-102.047808707683288, 20.819452864154989],
                        [-102.067436092368666, 20.771649683116291],
                        [-102.087680781084131, 20.778845360803821],
                        [-102.054912520862771, 20.846331373584896],
                        [-101.937144373308698, 20.955800862973646],
                        [-101.88646590305504, 21.061129298833301],
                        [-101.871255677783537, 21.09532408301569],
                        [-101.817658805306593, 21.107045695232429],
                        [-101.785440483200532, 21.048922191690135]
                    ]
                ]
            }
        },
        {
            "type": "Feature",
            "properties": { "color": "orange", "entidad_cvegeo": "11", "municipio_cvegeo": "11026", "entidad_nombre": "Romita", "municipi_2": "SRID=6362;MULTIPOLYGON(((2538771.627 973177.684599999,2538567.2867 973061.999699999,2538510.1495 973030.258499999,2538387.4233 972962.082899999,2538373.3882 972954.286600001,2538271.0536 972900.499200001,2538238.3773 972883.324900001,2538170.0453 972847.", "municipi_3": 0 },
            "geometry": {
                "type": "Polygon",
                "coordinates": [
                    [
                        [-101.637152033668542, 20.694611900620913],
                        [-101.690670626203541, 20.696049490258659],
                        [-101.693812489144918, 20.784184577761863],
                        [-101.734845331052611, 20.794869009306858],
                        [-101.708662358601686, 20.810573053027635],
                        [-101.697008255135998, 20.894047543437342],
                        [-101.64137352322409, 20.929055463332443],
                        [-101.580298844467222, 20.921851517485941],
                        [-101.540917905550558, 20.942261212094188],
                        [-101.498778107808391, 20.916038497076428],
                        [-101.500939781063678, 20.851546510428665],
                        [-101.46010361830227, 20.847347902490274],
                        [-101.455478281350253, 20.799978749264262],
                        [-101.527131059233142, 20.749071975895365],
                        [-101.602170376529173, 20.776475388034807],
                        [-101.645231853128848, 20.743501980302302],
                        [-101.637152033668542, 20.694611900620913]
                    ]
                ]
            }
        },
        {
            "type": "Feature",
            "properties": { "color": "orange", "entidad_cvegeo": "11", "municipio_cvegeo": "11027", "entidad_nombre": "Salamanca", "municipi_2": "SRID=6362;MULTIPOLYGON(((2592847.6649 984545.018199999,2592920.9651 984461.614100002,2592972.0082 984467.739999998,2592998.0882 984484.254900001,2593001.3919 984482.839000002,2593028.5125 984471.2161,2593156.136 984459.932300001,2593227.6534 984457.73229", "municipi_3": 0 },
            "geometry": {
                "type": "Polygon",
                "coordinates": [
                    [
                        [-101.088963427676234, 20.86509140886443],
                        [-101.086680864978391, 20.860048292785883],
                        [-101.067074746098683, 20.813922227223905],
                        [-101.102749040490977, 20.742621874238203],
                        [-101.079295467686862, 20.671472589179722],
                        [-101.062846427280562, 20.563240025733567],
                        [-101.085720762964002, 20.522247392845781],
                        [-101.038907246385889, 20.50980212288783],
                        [-101.044002215130007, 20.45159274139359],
                        [-101.094009038575734, 20.440655075066786],
                        [-101.12811653313743, 20.489932097002498],
                        [-101.234279946177054, 20.450690592286538],
                        [-101.25967273099819, 20.494856681898064],
                        [-101.313226730579615, 20.53939397755105],
                        [-101.311978787031364, 20.579961949796747],
                        [-101.269004146210492, 20.602752890344664],
                        [-101.251409393865814, 20.720871828432902],
                        [-101.186752552445896, 20.753851563799174],
                        [-101.141688745585796, 20.84775421558227],
                        [-101.088963427676234, 20.86509140886443]
                    ]
                ]
            }
        },
        {
            "type": "Feature",
            "properties": { "color": "orange", "entidad_cvegeo": "11", "municipio_cvegeo": "11009", "entidad_nombre": "Comonfort", "municipi_2": "SRID=6362;MULTIPOLYGON(((2634501.3991 964449.827199999,2632945.2716 964265.2445,2632875.5306 964256.9723,2632556.1743 964219.093800001,2632170.9198 963822.309300002,2632100.7247 963750.0134,2632056.7854 963704.7599,2632012.5411 963659.1061,2631952.9344 9", "municipi_3": 0 },
            "geometry": {
                "type": "Polygon",
                "coordinates": [
                    [
                        [-100.860583368635844, 20.661151665145542],
                        [-100.884419138628573, 20.698201544667175],
                        [-100.95677990624381, 20.697550269176645],
                        [-100.988946014512962, 20.788710268133716],
                        [-100.988608555048259, 20.811414741942183],
                        [-100.889675589491418, 20.793470085101372],
                        [-100.824123598458499, 20.805906377908748],
                        [-100.794050971728922, 20.785483980866125],
                        [-100.71824810288345, 20.831266897170632],
                        [-100.677405834649946, 20.79982554995728],
                        [-100.631829027416714, 20.792301922895465],
                        [-100.618560280104759, 20.716088152216894],
                        [-100.6348829175936, 20.66676665299206],
                        [-100.666846558324238, 20.688636429110986],
                        [-100.722345759790443, 20.679782073937833],
                        [-100.762137644443669, 20.649775096490679],
                        [-100.809328777912555, 20.688252688455673],
                        [-100.860583368635844, 20.661151665145542]
                    ]
                ]
            }
        },
        {
            "type": "Feature",
            "properties": { "color": "orange", "entidad_cvegeo": "11", "municipio_cvegeo": "11010", "entidad_nombre": "Coroneo", "municipi_2": "SRID=6362;MULTIPOLYGON(((2667936.1751 923388.879799999,2668291.3695 923115.592599999,2668408.215 923039.943999998,2668497.9524 922989.511500001,2668566.1908 922952.153700002,2668628.3542 922918.940000001,2668700.33 922933.883000001,2668847.0884 922946.02", "municipi_3": 0 },
            "geometry": {
                "type": "Polygon",
                "coordinates": [
                    [
                        [-100.350656472071108, 20.28841309949048],
                        [-100.323558373656724, 20.251934021283279],
                        [-100.355236704782357, 20.219018360121332],
                        [-100.380863118044743, 20.130065344972259],
                        [-100.429457280393862, 20.189959398118649],
                        [-100.408155806239108, 20.277370944156925],
                        [-100.386378560160793, 20.306849097972592],
                        [-100.350656472071108, 20.28841309949048]
                    ]
                ]
            }
        },
        {
            "type": "Feature",
            "properties": { "color": "red", "entidad_cvegeo": "11", "municipio_cvegeo": "11011", "entidad_nombre": "Cortazar", "municipi_2": "SRID=6362;MULTIPOLYGON(((2599326.2992 940440.4586,2599318.8635 940678.404199999,2599321.4499 940846.881499998,2599316.9268 941273.959399998,2599312.6279 941545.719599999,2599344.3745 941539.664500002,2599347.0763 941549.675000001,2599347.0819 941564.0223", "municipi_3": 0 },
            "geometry": {
                "type": "Polygon",
                "coordinates": [
                    [
                        [-101.038907246385889, 20.50980212288783],
                        [-100.984675412032871, 20.503093292794969],
                        [-100.909019168704049, 20.515633090993397],
                        [-100.845324446058328, 20.482253736491735],
                        [-100.844409557520919, 20.391807260821768],
                        [-100.82360780215997, 20.375154296503194],
                        [-100.827598372020375, 20.352823509685475],
                        [-100.880155533348315, 20.35499039137801],
                        [-100.984247892590105, 20.32835683408447],
                        [-101.015313735718848, 20.363663903282223],
                        [-101.044002215130007, 20.45159274139359],
                        [-101.038907246385889, 20.50980212288783]
                    ]
                ]
            }
        },
        {
            "type": "Feature",
            "properties": { "color": "red", "entidad_cvegeo": "11", "municipio_cvegeo": "11012", "entidad_nombre": "Cuerámaro", "municipi_2": "SRID=6362;MULTIPOLYGON(((2530205.0882 966284.133400001,2530238.5598 966220.204500001,2530268.4589 966233.0744,2530294.2921 966095.202100001,2530306.5502 966069.074099999,2530314.4295 966052.069499999,2530344.4595 966051.079,2530370.4982 966050.220199998,", "municipi_3": 0 },
            "geometry": {
                "type": "Polygon",
                "coordinates": [
                    [
                        [-101.690670626203541, 20.696049490258659],
                        [-101.637152033668542, 20.694611900620913],
                        [-101.580138878983533, 20.638710154530472],
                        [-101.604939109617234, 20.527032803448812],
                        [-101.722323592130678, 20.538158160034179],
                        [-101.718043584422219, 20.60824659516463],
                        [-101.77616685740891, 20.622726225869794],
                        [-101.753468750795236, 20.664642319602677],
                        [-101.690670626203541, 20.696049490258659]
                    ]
                ]
            }
        },
        {
            "type": "Feature",
            "properties": { "color": "red", "entidad_cvegeo": "11", "municipio_cvegeo": "11013", "entidad_nombre": "Doctor Mora", "municipi_2": "SRID=6362;MULTIPOLYGON(((2676523.9246 1010154.3572,2676502.7216 1010143.6531,2676479.0787 1010134.9506,2676463.5239 1010128.1128,2676441.7474 1010118.167,2676443.6142 1010098.2754,2676444.2363 1010079.0055,2676440.7857 1010045.2126,2676432.1547 1010016.3", "municipi_3": 0 },
            "geometry": {
                "type": "Polygon",
                "coordinates": [
                    [
                        [-100.293325248092003, 21.092332476204792],
                        [-100.454859031645555, 21.105598114417589],
                        [-100.458995482271632, 21.114956933063223],
                        [-100.484884190104168, 21.178693448965447],
                        [-100.432463593318957, 21.175427569275996],
                        [-100.351939363827157, 21.210803381547354],
                        [-100.321746474460184, 21.208645175185094],
                        [-100.24008794298399, 21.120494630421081],
                        [-100.293325248092003, 21.092332476204792]
                    ]
                ]
            }
        },
        {
            "type": "Feature",
            "properties": { "color": "red", "entidad_cvegeo": "11", "municipio_cvegeo": "11014", "entidad_nombre": "Dolores Hidalgo Cuna de la Independencia Nacional", "municipi_2": "SRID=6362;MULTIPOLYGON(((2604085.3238 1036692.4435,2604237.2123 1036569.6612,2604318.0619 1036460.2136,2604353.8848 1036411.7195,2604417.6155 1036352.5752,2604562.2741 1036146.2447,2604613.8193 1036072.7243,2604689.6636 1035964.5455,2604787.6613 1035840.", "municipi_3": 0 },
            "geometry": {
                "type": "Polygon",
                "coordinates": [
                    [
                        [-100.721418080072553, 21.297874119226808],
                        [-100.655814305840124, 21.233466143251349],
                        [-100.693052447941454, 21.196011288784053],
                        [-100.636555187143941, 21.108584121122821],
                        [-100.782387961874576, 21.089982985327751],
                        [-100.846253507492122, 21.028150113468186],
                        [-100.883495924190981, 21.021142445259326],
                        [-100.922444570190692, 20.962258882483589],
                        [-100.99357719594073, 20.921225924025592],
                        [-101.029102292335281, 20.885646836509707],
                        [-101.086680864978391, 20.860048292785883],
                        [-101.088963427676234, 20.86509140886443],
                        [-101.112853586690363, 20.953451412023913],
                        [-101.057162837013564, 20.979333919539275],
                        [-101.126819195203197, 21.007593401549101],
                        [-101.145993072816452, 21.045548157568742],
                        [-101.106605845335096, 21.140053045865294],
                        [-101.147345156932062, 21.158551547710729],
                        [-101.173171958972674, 21.211417066674638],
                        [-101.203876857870256, 21.207644179021134],
                        [-101.184785646693399, 21.233509472766563],
                        [-101.105587812716536, 21.257976564296822],
                        [-101.051179716070379, 21.288592834732651],
                        [-101.040517818299008, 21.326024786071837],
                        [-101.003586416213494, 21.333603496031262],
                        [-100.961852008944732, 21.306734878250836],
                        [-100.85866857879185, 21.334359566964512],
                        [-100.824364799853839, 21.314994187636707],
                        [-100.765669765212948, 21.319416525619715],
                        [-100.721418080072553, 21.297874119226808]
                    ]
                ]
            }
        },
        {
            "type": "Feature",
            "properties": { "color": "red", "entidad_cvegeo": "11", "municipio_cvegeo": "11015", "entidad_nombre": "Guanajuato", "municipi_2": "SRID=6362;MULTIPOLYGON(((2563414.43 1014326.5883,2563441.6048 1014291.5132,2563498.312 1014199.016,2563511.9284 1014163.8315,2563517.2634 1014153.0061,2563518.1998 1014124.9954,2563518.8269 1014115.7755,2563520.9665 1014084.315,2563592.7117 1014098.4455,", "municipi_3": 0 },
            "geometry": {
                "type": "Polygon",
                "coordinates": [
                    [
                        [-101.38669669087308, 21.138488067705559],
                        [-101.332243032421886, 21.150255126547577],
                        [-101.295725167264564, 21.202812113367518],
                        [-101.203876857870256, 21.207644179021134],
                        [-101.173171958972674, 21.211417066674638],
                        [-101.147345156932062, 21.158551547710729],
                        [-101.106605845335096, 21.140053045865294],
                        [-101.145993072816452, 21.045548157568742],
                        [-101.126819195203197, 21.007593401549101],
                        [-101.057162837013564, 20.979333919539275],
                        [-101.112853586690363, 20.953451412023913],
                        [-101.088963427676234, 20.86509140886443],
                        [-101.141688745585796, 20.84775421558227],
                        [-101.209273864098009, 20.833149428465891],
                        [-101.358819097902426, 20.840004171034064],
                        [-101.318420778255785, 20.884009773566749],
                        [-101.343172230686108, 20.923110093697098],
                        [-101.334234246495129, 20.993352502020077],
                        [-101.348446921086833, 21.032603352607083],
                        [-101.436333287067185, 21.098952985058155],
                        [-101.434776677941755, 21.137286329173239],
                        [-101.38669669087308, 21.138488067705559]
                    ]
                ]
            }
        },
        {
            "type": "Feature",
            "properties": { "color": "red", "entidad_cvegeo": "11", "municipio_cvegeo": "11016", "entidad_nombre": "Huanímaro", "municipi_2": "SRID=6362;MULTIPOLYGON(((2556364.7614 934871.622299999,2556429.0114 934769.764400002,2556464.2641 934787.678599998,2556552.7307 934664.27,2556546.7713 934627.326699998,2556620.6925 934563.711599998,2556678.5214 934608.352000002,2556752.1221 934637.236900", "municipi_3": 0 },
            "geometry": {
                "type": "Polygon",
                "coordinates": [
                    [
                        [-101.41209531949994, 20.385700588597263],
                        [-101.460127019310818, 20.323470972817166],
                        [-101.563639516819237, 20.320473561851252],
                        [-101.57474266356509, 20.391619134586271],
                        [-101.455330265017764, 20.415196346422825],
                        [-101.41209531949994, 20.385700588597263]
                    ]
                ]
            }
        },
        {
            "type": "Feature",
            "properties": { "color": "red", "entidad_cvegeo": "11", "municipio_cvegeo": "11017", "entidad_nombre": "Irapuato", "municipi_2": "SRID=6362;MULTIPOLYGON(((2588472.2362 980206.0836,2587958.0729 979698.3189,2587945.3738 979678.503699999,2587635.1838 979194.4947,2587613.9568 979152.268199999,2587605.9412 979136.322999999,2587503.3929 978825.112399999,2587492.0563 978805.713599999,2587", "municipi_3": 0 },
            "geometry": {
                "type": "Polygon",
                "coordinates": [
                    [
                        [-101.311978787031364, 20.579961949796747],
                        [-101.37344151850175, 20.582210894040376],
                        [-101.406628604713831, 20.560809304399843],
                        [-101.400522135434443, 20.515820560801426],
                        [-101.493552293991357, 20.508788279790547],
                        [-101.507600637835651, 20.561562352373031],
                        [-101.495710425230072, 20.639877140616569],
                        [-101.541526328425988, 20.731560143634976],
                        [-101.527131059233142, 20.749071975895365],
                        [-101.455478281350253, 20.799978749264262],
                        [-101.410592752284245, 20.800665777544936],
                        [-101.408570895809603, 20.843797246650759],
                        [-101.358819097902426, 20.840004171034064],
                        [-101.209273864098009, 20.833149428465891],
                        [-101.141688745585796, 20.84775421558227],
                        [-101.186752552445896, 20.753851563799174],
                        [-101.251409393865814, 20.720871828432902],
                        [-101.269004146210492, 20.602752890344664],
                        [-101.311978787031364, 20.579961949796747]
                    ]
                ]
            }
        },
        {
            "type": "Feature",
            "properties": { "color": "red", "entidad_cvegeo": "11", "municipio_cvegeo": "11018", "entidad_nombre": "Jaral del Progreso", "municipi_2": "SRID=6362;MULTIPOLYGON(((2602801.1995 932342.987599999,2602797.087 932314.230700001,2602777.8946 932255.3466,2602766.9283 932223.850699998,2602757.0485 932152.9815,2602751.6218 932136.0436,2602733.9878 932100.135699999,2602721.1018 932075.067499999,26027", "municipi_3": 0 },
            "geometry": {
                "type": "Polygon",
                "coordinates": [
                    [
                        [-100.984247892590105, 20.32835683408447],
                        [-101.005629361172069, 20.285515984395872],
                        [-101.041786116679717, 20.277496988323509],
                        [-101.078528937222629, 20.300651043008568],
                        [-101.109510383289162, 20.317195939887213],
                        [-101.113472150196387, 20.395541114429037],
                        [-101.094009038575734, 20.440655075066786],
                        [-101.044002215130007, 20.45159274139359],
                        [-101.015313735718848, 20.363663903282223],
                        [-100.984247892590105, 20.32835683408447]
                    ]
                ]
            }
        },
        {
            "type": "Feature",
            "properties": { "color": "red", "entidad_cvegeo": "11", "municipio_cvegeo": "11019", "entidad_nombre": "Jerécuaro", "municipi_2": "SRID=6362;MULTIPOLYGON(((2662067.9265 932151.5726,2662170.2778 932117.337000001,2662177.8195 932115.540399998,2662186.7386 932113.415600002,2662267.3316 932094.2163,2662294.3742 932087.774099998,2662451.1443 932031.293400001,2662470.9197 932024.1688,2662", "municipi_3": 0 },
            "geometry": {
                "type": "Polygon",
                "coordinates": [
                    [
                        [-100.403279380529455, 20.36082264914144],
                        [-100.386378560160793, 20.306849097972592],
                        [-100.408155806239108, 20.277370944156925],
                        [-100.429457280393862, 20.189959398118649],
                        [-100.380863118044743, 20.130065344972259],
                        [-100.389751106723324, 20.080822931192536],
                        [-100.358263683072281, 20.06491646269232],
                        [-100.362931117134949, 19.989861076923397],
                        [-100.448532015777317, 19.982756309702733],
                        [-100.493963504287947, 20.023482406208032],
                        [-100.494510583292481, 20.07667034922391],
                        [-100.581584949156706, 20.082358610096119],
                        [-100.602173775298439, 20.150506476868003],
                        [-100.651272337336451, 20.154359805379105],
                        [-100.641499043960508, 20.214097722522325],
                        [-100.676717598672866, 20.228948559248661],
                        [-100.686970130642749, 20.321412829732665],
                        [-100.653599032386396, 20.348143172585846],
                        [-100.593097509532072, 20.325719844645711],
                        [-100.508587654039943, 20.332384545999137],
                        [-100.469544537228472, 20.386943833336169],
                        [-100.403279380529455, 20.36082264914144]
                    ]
                ]
            }
        },
        {
            "type": "Feature",
            "properties": { "color": "orange", "entidad_cvegeo": "11", "municipio_cvegeo": "11020", "entidad_nombre": "León", "municipi_2": "SRID=6362;MULTIPOLYGON(((2536980.4246 1035269.3938,2537058.4559 1035265.7928,2537084.1951 1035265.9625,2537134.8033 1035257.4401,2537180.617 1035251.0483,2537205.6547 1035242.5259,2537216.177 1035239.0333,2537225.9115 1035235.0873,2537238.5615 1035226.53", "municipi_3": 0 },
            "geometry": {
                "type": "Polygon",
                "coordinates": [
                    [
                        [-101.38669669087308, 21.138488067705559],
                        [-101.434776677941755, 21.137286329173239],
                        [-101.47252438361302, 21.152246348969172],
                        [-101.499367188254141, 21.010495990445239],
                        [-101.57311277690556, 21.029545006297241],
                        [-101.581783100097127, 20.97692804457991],
                        [-101.540917905550558, 20.942261212094188],
                        [-101.580298844467222, 20.921851517485941],
                        [-101.64137352322409, 20.929055463332443],
                        [-101.697008255135998, 20.894047543437342],
                        [-101.712797850560975, 20.954535638606885],
                        [-101.671417923387921, 20.951037123221177],
                        [-101.668373112429563, 20.994209296553564],
                        [-101.783831902602728, 21.016250161735222],
                        [-101.785440483200532, 21.048922191690135],
                        [-101.817658805306593, 21.107045695232429],
                        [-101.787271395735729, 21.156382002813238],
                        [-101.773762820066011, 21.219969365122953],
                        [-101.759716505238259, 21.267621732294582],
                        [-101.643177107443023, 21.299335687172313],
                        [-101.645885186007419, 21.328334459265569],
                        [-101.586117576207457, 21.309957632417643],
                        [-101.528213734084602, 21.255447142984],
                        [-101.440147857926576, 21.251873574228984],
                        [-101.372249640294328, 21.177028151956033],
                        [-101.38669669087308, 21.138488067705559]
                    ]
                ]
            }
        },
        {
            "type": "Feature",
            "properties": { "color": "orange", "entidad_cvegeo": "11", "municipio_cvegeo": "11021", "entidad_nombre": "Moroleón", "municipi_2": "SRID=6362;MULTIPOLYGON(((2577881.7015 906721.260600001,2577982.7029 906689.0482,2578063.9036 906698.282699998,2578189.5265 906650.1358,2578215.2209 906644.750799999,2578276.9518 906631.176600002,2578345.1354 906617.833000001,2578404.525 906579.2311,25784", "municipi_3": 0 },
            "geometry": {
                "type": "Polygon",
                "coordinates": [
                    [
                        [-101.202512925964868, 20.150238468745627],
                        [-101.178808886784651, 20.126875165346611],
                        [-101.196318454920529, 20.057188551027295],
                        [-101.20305551404212, 20.007224156711391],
                        [-101.238345975249246, 20.032118558226664],
                        [-101.29166559625466, 20.036065164734197],
                        [-101.325149667974841, 20.070677428071061],
                        [-101.252207053127975, 20.161860954436502],
                        [-101.202512925964868, 20.150238468745627]
                    ]
                ]
            }
        },
        {
            "type": "Feature",
            "properties": { "color": "orange", "entidad_cvegeo": "11", "municipio_cvegeo": "11022", "entidad_nombre": "Ocampo", "municipi_2": "SRID=6362;MULTIPOLYGON(((2548367.7407 1042634.5954,2548339.2004 1042780.338,2548247.8634 1043038.5787,2548564.5285 1043250.9786,2548473.341 1043518.1255,2548467.2311 1043547.905,2548572.9738 1043755.3493,2548527.0985 1043985.8619,2548709.5103 1044081.953", "municipi_3": 0 },
            "geometry": {
                "type": "Polygon",
                "coordinates": [
                    [
                        [-101.570415624822786, 21.418535751286086],
                        [-101.589041977228902, 21.464899964183608],
                        [-101.641268837293651, 21.526648322590123],
                        [-101.622781857411056, 21.544797173425259],
                        [-101.586023633992539, 21.607809628607313],
                        [-101.584598767941785, 21.668960101059223],
                        [-101.538832166266374, 21.777334879948999],
                        [-101.510541749819922, 21.799058495959599],
                        [-101.496331245182716, 21.80993965886061],
                        [-101.422708060417747, 21.824965118871049],
                        [-101.443374292154687, 21.735870688113351],
                        [-101.438426448720719, 21.666569806135588],
                        [-101.33819762116778, 21.677765386208499],
                        [-101.363533327154727, 21.561395925835566],
                        [-101.321942206776114, 21.555933465831679],
                        [-101.316635093914371, 21.50718354686521],
                        [-101.339147866477504, 21.463672219253475],
                        [-101.328716735790849, 21.409698436987952],
                        [-101.371147352987634, 21.397455293355133],
                        [-101.433392152631413, 21.417193024778605],
                        [-101.500238677868012, 21.379092104965647],
                        [-101.570415624822786, 21.418535751286086]
                    ]
                ]
            }
        },
        {
            "type": "Feature",
            "properties": { "color": "orange", "entidad_cvegeo": "11", "municipio_cvegeo": "11023", "entidad_nombre": "Pénjamo", "municipi_2": "SRID=6362;MULTIPOLYGON(((2523232.7241 957356.474800002,2523801.7977 956756.5425,2524245.9881 956972.878199998,2524286.0661 956873.629700001,2524310.5973 956810.655999999,2524336.2864 956772.400699999,2524341.3125 956752.316399999,2524384.035 956687.04259", "municipi_3": 0 },
            "geometry": {
                "type": "Polygon",
                "coordinates": [
                    [
                        [-101.77616685740891, 20.622726225869794],
                        [-101.718043584422219, 20.60824659516463],
                        [-101.722323592130678, 20.538158160034179],
                        [-101.604939109617234, 20.527032803448812],
                        [-101.60038115106174, 20.406746961506233],
                        [-101.645596510983808, 20.353082057934163],
                        [-101.627093814346665, 20.303420669728276],
                        [-101.647408805243714, 20.238429192446073],
                        [-101.685478856013575, 20.218461008067244],
                        [-101.796535929925028, 20.21282386723604],
                        [-101.834798427723769, 20.22469693136793],
                        [-101.914889209317991, 20.194407355426094],
                        [-101.939872625276678, 20.227081760762992],
                        [-101.946358681803716, 20.343178100182108],
                        [-102.022008082525218, 20.381205626405357],
                        [-102.096254456896958, 20.384131264526737],
                        [-102.009390169601048, 20.544997446070614],
                        [-101.968960316904358, 20.562381109647159],
                        [-101.928882586995115, 20.567718021083429],
                        [-101.857947580763437, 20.539997710334493],
                        [-101.77616685740891, 20.622726225869794]
                    ]
                ]
            }
        },
        {
            "type": "Feature",
            "properties": { "color": "orange", "entidad_cvegeo": "11", "municipio_cvegeo": "11037", "entidad_nombre": "Silao", "municipi_2": "SRID=6362;MULTIPOLYGON(((2554957.6482 1015804.2247,2555083.1619 1015782.6101,2555140.0782 1015776.9377,2555199.6076 1015763.9528,2555245.4511 1015757.1181,2555298.8205 1015734.5642,2555318.3264 1015727.2468,2555348.254 1015727.6737,2555431.1966 1015743.4", "municipi_3": 0 },
            "geometry": {
                "type": "Polygon",
                "coordinates": [
                    [
                        [-101.434776677941755, 21.137286329173239],
                        [-101.436333287067185, 21.098952985058155],
                        [-101.348446921086833, 21.032603352607083],
                        [-101.334234246495129, 20.993352502020077],
                        [-101.343172230686108, 20.923110093697098],
                        [-101.318420778255785, 20.884009773566749],
                        [-101.358819097902426, 20.840004171034064],
                        [-101.408570895809603, 20.843797246650759],
                        [-101.410592752284245, 20.800665777544936],
                        [-101.455478281350253, 20.799978749264262],
                        [-101.46010361830227, 20.847347902490274],
                        [-101.500939781063678, 20.851546510428665],
                        [-101.498778107808391, 20.916038497076428],
                        [-101.540917905550558, 20.942261212094188],
                        [-101.581783100097127, 20.97692804457991],
                        [-101.57311277690556, 21.029545006297241],
                        [-101.499367188254141, 21.010495990445239],
                        [-101.47252438361302, 21.152246348969172],
                        [-101.434776677941755, 21.137286329173239]
                    ]
                ]
            }
        },
        {
            "type": "Feature",
            "properties": { "color": "orange", "entidad_cvegeo": "11", "municipio_cvegeo": "11038", "entidad_nombre": "Tarandacuao", "municipi_2": "SRID=6362;MULTIPOLYGON(((2653066.2112 898063.981400002,2653150.587 897989.167199999,2653273.0004 897901.8675,2653299.1275 897894.906199999,2653294.6404 897867.7249,2653247.0106 897744.777199998,2653166.2852 897684.313900001,2652990.249 897417.178399999,2", "municipi_3": 0 },
            "geometry": {
                "type": "Polygon",
                "coordinates": [
                    [
                        [-100.493963504287947, 20.023482406208032],
                        [-100.448532015777317, 19.982756309702733],
                        [-100.510407246402792, 19.955539395246969],
                        [-100.601893347558843, 19.985893074453958],
                        [-100.563740010058723, 20.0724627511186],
                        [-100.511951537878531, 20.066129825036249],
                        [-100.493963504287947, 20.023482406208032]
                    ]
                ]
            }
        },
        {
            "type": "Feature",
            "properties": { "color": "orange", "entidad_cvegeo": "11", "municipio_cvegeo": "11039", "entidad_nombre": "Tarimoro", "municipi_2": "SRID=6362;MULTIPOLYGON(((2632473.4088 907134.4038,2632453.0933 907277.963500001,2632429.7381 907268.980300002,2632393.7819 907255.092500001,2632339.8304 907234.254500002,2632318.1051 907225.863400001,2632300.4599 907219.048500001,2632282.2963 907212.0333", "municipi_3": 0 },
            "geometry": {
                "type": "Polygon",
                "coordinates": [
                    [
                        [-100.781731242179205, 20.173086191841321],
                        [-100.789609084497656, 20.232126137495747],
                        [-100.836515985808276, 20.259210768559939],
                        [-100.827598372020375, 20.352823509685475],
                        [-100.82360780215997, 20.375154296503194],
                        [-100.737428258416969, 20.373857636331962],
                        [-100.690695966261316, 20.424026431921622],
                        [-100.655967892307416, 20.406781738245616],
                        [-100.653599032386396, 20.348143172585846],
                        [-100.686970130642749, 20.321412829732665],
                        [-100.676717598672866, 20.228948559248661],
                        [-100.706887330892712, 20.194718246463431],
                        [-100.781731242179205, 20.173086191841321]
                    ]
                ]
            }
        },
        {
            "type": "Feature",
            "properties": { "color": "orange", "entidad_cvegeo": "11", "municipio_cvegeo": "11040", "entidad_nombre": "Tierra Blanca", "municipi_2": "SRID=6362;MULTIPOLYGON(((2691368.4791 1017012.5049,2691392.7222 1017006.4496,2691404.8438 1017017.551,2691414.9452 1017029.6614,2691429.0869 1017027.6429,2691451.3099 1017015.5325,2691482.624 1016974.1551,2691496.5974 1016810.6269,2691483.8883 1016772.53", "municipi_3": 0 },
            "geometry": {
                "type": "Polygon",
                "coordinates": [
                    [
                        [-100.014702001501135, 21.05097118675301],
                        [-100.011270545161366, 21.040816738765713],
                        [-100.060746315233644, 21.005815789105661],
                        [-100.092341067164867, 20.93174438191328],
                        [-100.187811128332342, 20.932547554017262],
                        [-100.245544156208581, 20.963328958627308],
                        [-100.254165290160287, 21.044328823815039],
                        [-100.293325248092003, 21.092332476204792],
                        [-100.24008794298399, 21.120494630421081],
                        [-100.16345056743161, 21.13650489318357],
                        [-100.152474211401241, 21.15611746044409],
                        [-100.071122885454116, 21.091044585197778],
                        [-100.074161094615476, 21.058496012881115],
                        [-100.014702001501135, 21.05097118675301]
                    ]
                ]
            }
        },
        {
            "type": "Feature",
            "properties": { "color": "orange", "entidad_cvegeo": "11", "municipio_cvegeo": "11041", "entidad_nombre": "Uriangato", "municipi_2": "SRID=6362;MULTIPOLYGON(((2583445.9807 910017.051100001,2583420.9992 909793.7848,2583608.5418 909794.399900001,2583671.0668 909796.304000001,2583671.3421 909796.312899999,2583681.9902 909795.9551,2583675.6408 909735.059500001,2583668.7603 909669.071400002", "municipi_3": 0 },
            "geometry": {
                "type": "Polygon",
                "coordinates": [
                    [
                        [-101.080241574905727, 20.082849761644798],
                        [-101.132036384841271, 20.060668292605477],
                        [-101.165191105563821, 20.087162969361131],
                        [-101.196318454920529, 20.057188551027295],
                        [-101.178808886784651, 20.126875165346611],
                        [-101.202512925964868, 20.150238468745627],
                        [-101.196976473668812, 20.182343277655956],
                        [-101.12584736025839, 20.164563887470702],
                        [-101.080241574905727, 20.082849761644798]
                    ]
                ]
            }
        },
        {
            "type": "Feature",
            "properties": { "color": "orange", "entidad_cvegeo": "11", "municipio_cvegeo": "11042", "entidad_nombre": "Valle de Santiago", "municipi_2": "SRID=6362;MULTIPOLYGON(((2569854.2494 948246.786899999,2569875.5372 948242.920299999,2569909.2138 948242.920299999,2569935.2859 948246.7139,2569968.1051 948259.583000001,2570018.0464 948278.3697,2570056.1356 948293.9001,2570084.8961 948300.888999999,2570", "municipi_3": 0 },
            "geometry": {
                "type": "Polygon",
                "coordinates": [
                    [
                        [-101.313226730579615, 20.53939397755105],
                        [-101.25967273099819, 20.494856681898064],
                        [-101.234279946177054, 20.450690592286538],
                        [-101.12811653313743, 20.489932097002498],
                        [-101.094009038575734, 20.440655075066786],
                        [-101.113472150196387, 20.395541114429037],
                        [-101.109510383289162, 20.317195939887213],
                        [-101.078528937222629, 20.300651043008568],
                        [-101.204161001064577, 20.247831322608519],
                        [-101.246407853937271, 20.293470959828827],
                        [-101.343646578657314, 20.27148827265103],
                        [-101.361442037742123, 20.249049962541484],
                        [-101.419696061023117, 20.274444088114176],
                        [-101.458325181000106, 20.269599964120424],
                        [-101.460127019310818, 20.323470972817166],
                        [-101.41209531949994, 20.385700588597263],
                        [-101.379960590887919, 20.41621725468147],
                        [-101.403050379712298, 20.478155783519803],
                        [-101.367035248578773, 20.504240861178101],
                        [-101.313226730579615, 20.53939397755105]
                    ]
                ]
            }
        },
        {
            "type": "Feature",
            "properties": { "color": "orange", "entidad_cvegeo": "11", "municipio_cvegeo": "11043", "entidad_nombre": "Victoria", "municipi_2": "SRID=6362;MULTIPOLYGON(((2685440.7171 1011924.4519,2684667.4932 1012202.1146,2682532.2939 1012968.8589,2682047.0035 1013288.3122,2681991.9798 1013324.5324,2681698.7168 1013704.9519,2681766.8657 1013859.6374,2681634.5286 1014009.8224,2681430.3362 1014038.", "municipi_3": 0 },
            "geometry": {
                "type": "Polygon",
                "coordinates": [
                    [
                        [-100.24008794298399, 21.120494630421081],
                        [-100.321746474460184, 21.208645175185094],
                        [-100.351939363827157, 21.210803381547354],
                        [-100.372373169220282, 21.300599684436158],
                        [-100.348850142788493, 21.329845555240329],
                        [-100.366000609469666, 21.372672563988552],
                        [-100.344106298449958, 21.423197565841249],
                        [-100.262044122523307, 21.453329511695294],
                        [-100.214198114338458, 21.567778358857428],
                        [-100.206019746860022, 21.612997187427617],
                        [-100.223184085516294, 21.665634585151722],
                        [-100.18055368292066, 21.650208008396142],
                        [-100.076079771099401, 21.558057160420955],
                        [-100.062276053570159, 21.523305476389599],
                        [-100.096357634848019, 21.462021246052458],
                        [-100.087532002085851, 21.415171647757305],
                        [-100.118596660046876, 21.391699832376968],
                        [-100.152509179934555, 21.303679115181083],
                        [-100.12573142395857, 21.258371135352739],
                        [-100.130263372988196, 21.215541784625099],
                        [-100.152474211401241, 21.15611746044409],
                        [-100.16345056743161, 21.13650489318357],
                        [-100.24008794298399, 21.120494630421081]
                    ]
                ]
            }
        },
        {
            "type": "Feature",
            "properties": { "color": "orange", "entidad_cvegeo": "11", "municipio_cvegeo": "11044", "entidad_nombre": "Villagrán", "municipi_2": "SRID=6362;MULTIPOLYGON(((2604179.4126 951882.916999999,2604180.3637 952008.801800001,2604180.4035 952013.946199998,2604181.5799 952169.521000002,2604178.7486 952304.273800001,2604135.8457 952311.485399999,2604133.2646 952311.342599999,2603989.663 952326.", "municipi_3": 0 },
            "geometry": {
                "type": "Polygon",
                "coordinates": [
                    [
                        [-100.91077632372324, 20.56958371729322],
                        [-100.909019168704049, 20.515633090993397],
                        [-100.984675412032871, 20.503093292794969],
                        [-101.038907246385889, 20.50980212288783],
                        [-101.085720762964002, 20.522247392845781],
                        [-101.062846427280562, 20.563240025733567],
                        [-101.022902071909229, 20.561016138062222],
                        [-100.979624352197106, 20.591654717206193],
                        [-100.91077632372324, 20.56958371729322]
                    ]
                ]
            }
        },
        {
            "type": "Feature",
            "properties": { "color": "orange", "entidad_cvegeo": "11", "municipio_cvegeo": "11045", "entidad_nombre": "Xichú", "municipi_2": "SRID=6362;MULTIPOLYGON(((2709530.6247 1058488.8442,2709657.6868 1058484.4628,2709787.4238 1058469.4322,2709948.2646 1058462.5032,2710090.951 1058450.2259,2710321.8062 1058438.2516,2710353.6521 1058435.053,2710358.5053 1058410.3393,2710383.768 1058415.876", "municipi_3": 0 },
            "geometry": {
                "type": "Polygon",
                "coordinates": [
                    [
                        [-99.777349784071163, 21.495022667736741],
                        [-99.779101452484795, 21.394928199330057],
                        [-99.829738717403089, 21.377375159375759],
                        [-99.859261519025154, 21.340311633525683],
                        [-99.904222212394032, 21.185322911413753],
                        [-99.986368046309096, 21.218310032461236],
                        [-100.011085733379559, 21.189464339378159],
                        [-100.072083881016368, 21.22919510379305],
                        [-100.130263372988196, 21.215541784625099],
                        [-100.12573142395857, 21.258371135352739],
                        [-100.152509179934555, 21.303679115181083],
                        [-100.118596660046876, 21.391699832376968],
                        [-100.087532002085851, 21.415171647757305],
                        [-100.096357634848019, 21.462021246052458],
                        [-100.062276053570159, 21.523305476389599],
                        [-99.957019313893241, 21.526219420873751],
                        [-99.942413626354963, 21.461785763901894],
                        [-99.906005384678551, 21.448136586839155],
                        [-99.867000377694097, 21.473462388437351],
                        [-99.81707411695713, 21.461690821223854],
                        [-99.777349784071163, 21.495022667736741]
                    ]
                ]
            }
        },
        {
            "type": "Feature",
            "properties": { "color": "orange", "entidad_cvegeo": "11", "municipio_cvegeo": "11046", "entidad_nombre": "Yuriria", "municipi_2": "SRID=6362;MULTIPOLYGON(((2592888.0333 922006.8871,2592994.5177 921736.069899999,2593101.6614 921887.712000001,2593113.2107 921879.1074,2593198.142 921815.824200001,2593231.1566 921791.224100001,2593315.9171 921728.0704,2593373.9602 921684.8215,2593423.09", "municipi_3": 0 },
            "geometry": {
                "type": "Polygon",
                "coordinates": [
                    [
                        [-101.078528937222629, 20.300651043008568],
                        [-101.041786116679717, 20.277496988323509],
                        [-101.046690753781391, 20.211675914363987],
                        [-101.020098521471127, 20.200131000746641],
                        [-101.052955396931964, 20.129959906884046],
                        [-101.000358263570632, 20.109446249021751],
                        [-101.011785397122765, 20.081523168733224],
                        [-101.080241574905727, 20.082849761644798],
                        [-101.12584736025839, 20.164563887470702],
                        [-101.196976473668812, 20.182343277655956],
                        [-101.202512925964868, 20.150238468745627],
                        [-101.252207053127975, 20.161860954436502],
                        [-101.325149667974841, 20.070677428071061],
                        [-101.29166559625466, 20.036065164734197],
                        [-101.328295893113292, 20.031979020978433],
                        [-101.402450547207849, 20.044825554223198],
                        [-101.419891126540634, 20.201590584021332],
                        [-101.363198175516999, 20.195794412206631],
                        [-101.361442037742123, 20.249049962541484],
                        [-101.343646578657314, 20.27148827265103],
                        [-101.246407853937271, 20.293470959828827],
                        [-101.204161001064577, 20.247831322608519],
                        [-101.078528937222629, 20.300651043008568]
                    ]
                ]
            }
        },
        {
            "type": "Feature",
            "properties": { "color": "red", "entidad_cvegeo": "11", "municipio_cvegeo": "11001", "entidad_nombre": "Abasolo", "municipi_2": "SRID=6362;MULTIPOLYGON(((2542499.9899 972096.149599999,2542587.4669 971946.404399998,2542596.3765 971960.960999999,2542835.8468 971961.350200001,2542883.3103 971951.847800002,2542963.5459 971935.784299999,2543040.3504 971924.307,2543089.1764 971917.0108,", "municipi_3": 0 },
            "geometry": {
                "type": "Polygon",
                "coordinates": [
                    [
                        [-101.527131059233142, 20.749071975895365],
                        [-101.541526328425988, 20.731560143634976],
                        [-101.495710425230072, 20.639877140616569],
                        [-101.507600637835651, 20.561562352373031],
                        [-101.493552293991357, 20.508788279790547],
                        [-101.400522135434443, 20.515820560801426],
                        [-101.367035248578773, 20.504240861178101],
                        [-101.403050379712298, 20.478155783519803],
                        [-101.379960590887919, 20.41621725468147],
                        [-101.41209531949994, 20.385700588597263],
                        [-101.455330265017764, 20.415196346422825],
                        [-101.57474266356509, 20.391619134586271],
                        [-101.563639516819237, 20.320473561851252],
                        [-101.627093814346665, 20.303420669728276],
                        [-101.645596510983808, 20.353082057934163],
                        [-101.60038115106174, 20.406746961506233],
                        [-101.604939109617234, 20.527032803448812],
                        [-101.580138878983533, 20.638710154530472],
                        [-101.637152033668542, 20.694611900620913],
                        [-101.645231853128848, 20.743501980302302],
                        [-101.602170376529173, 20.776475388034807],
                        [-101.527131059233142, 20.749071975895365]
                    ]
                ]
            }
        },
        {
            "type": "Feature",
            "properties": { "color": "red", "entidad_cvegeo": "11", "municipio_cvegeo": "11002", "entidad_nombre": "Acámbaro", "municipi_2": "SRID=6362;MULTIPOLYGON(((2647778.106 891690.090100002,2647746.2656 891618.836399999,2647723.4625 891567.806600001,2647708.3271 891535.569899999,2647697.0917 891511.639600001,2647681.0556 891477.4844,2647677.9824 891465.812899999,2647673.5687 891454.34560", "municipi_3": 0 },
            "geometry": {
                "type": "Polygon",
                "coordinates": [
                    [
                        [-100.601893347558843, 19.985893074453958],
                        [-100.619686715906013, 19.957163809195702],
                        [-100.653801270699489, 19.959697793145889],
                        [-100.778813612403411, 19.915149687151725],
                        [-100.792063938542285, 19.955574798309478],
                        [-100.83576183731671, 19.934596426004791],
                        [-100.901585911999447, 19.959505830254344],
                        [-100.958732488198109, 19.930789266669432],
                        [-101.003092015639268, 19.953172994557683],
                        [-100.970278237151931, 20.005170619828991],
                        [-100.893727317060126, 20.063832181477792],
                        [-100.896709081460116, 20.109419166404432],
                        [-100.820274222080243, 20.141215277732233],
                        [-100.781731242179205, 20.173086191841321],
                        [-100.706887330892712, 20.194718246463431],
                        [-100.676717598672866, 20.228948559248661],
                        [-100.641499043960508, 20.214097722522325],
                        [-100.651272337336451, 20.154359805379105],
                        [-100.602173775298439, 20.150506476868003],
                        [-100.581584949156706, 20.082358610096119],
                        [-100.494510583292481, 20.07667034922391],
                        [-100.493963504287947, 20.023482406208032],
                        [-100.511951537878531, 20.066129825036249],
                        [-100.563740010058723, 20.0724627511186],
                        [-100.601893347558843, 19.985893074453958]
                    ]
                ]
            }
        },
        {
            "type": "Feature",
            "properties": { "color": "red", "entidad_cvegeo": "11", "municipio_cvegeo": "11003", "entidad_nombre": "San Miguel de Allende", "municipi_2": "SRID=6362;MULTIPOLYGON(((2642103.189 1011596.5916,2642233.0124 1011561.7959,2642255.6288 1011555.7342,2642370.8861 1011521.3846,2642409.3752 1011509.8803,2642523.6315 1011475.7294,2642644.7276 1011441.5372,2642740.7596 1011417.1385,2642743.8427 1011416.3", "municipi_3": 0 },
            "geometry": {
                "type": "Polygon",
                "coordinates": [
                    [
                        [-100.528681310466908, 21.07112347573074],
                        [-100.510539482540807, 20.970128082160677],
                        [-100.47223355940568, 20.928415209083877],
                        [-100.507286618474126, 20.869538223214857],
                        [-100.559332222220391, 20.829914671526723],
                        [-100.548914617428821, 20.736383416757196],
                        [-100.596506863967832, 20.717312172288246],
                        [-100.618560280104759, 20.716088152216894],
                        [-100.631829027416714, 20.792301922895465],
                        [-100.677405834649946, 20.79982554995728],
                        [-100.71824810288345, 20.831266897170632],
                        [-100.794050971728922, 20.785483980866125],
                        [-100.824123598458499, 20.805906377908748],
                        [-100.889675589491418, 20.793470085101372],
                        [-100.988608555048259, 20.811414741942183],
                        [-100.988946014512962, 20.788710268133716],
                        [-101.033098601296786, 20.784782586503361],
                        [-101.067074746098683, 20.813922227223905],
                        [-101.086680864978391, 20.860048292785883],
                        [-101.029102292335281, 20.885646836509707],
                        [-100.99357719594073, 20.921225924025592],
                        [-100.922444570190692, 20.962258882483589],
                        [-100.883495924190981, 21.021142445259326],
                        [-100.846253507492122, 21.028150113468186],
                        [-100.782387961874576, 21.089982985327751],
                        [-100.636555187143941, 21.108584121122821],
                        [-100.566557676363558, 21.100976427962081],
                        [-100.528681310466908, 21.07112347573074]
                    ]
                ]
            }
        },
        {
            "type": "Feature",
            "properties": { "color": "red", "entidad_cvegeo": "11", "municipio_cvegeo": "11004", "entidad_nombre": "Apaseo el Alto", "municipi_2": "SRID=6362;MULTIPOLYGON(((2655068.364 948110.4179,2655060.1336 948034.945099998,2655057.3523 948035.567899998,2655051.4806 948031.697000001,2655042.2622 947963.346000001,2655029.8075 947831.194800001,2655029.3997 947803.521899998,2655026.4167 947791.66800", "municipi_3": 0 },
            "geometry": {
                "type": "Polygon",
                "coordinates": [
                    [
                        [-100.469544537228472, 20.386943833336169],
                        [-100.508587654039943, 20.332384545999137],
                        [-100.593097509532072, 20.325719844645711],
                        [-100.653599032386396, 20.348143172585846],
                        [-100.655967892307416, 20.406781738245616],
                        [-100.690695966261316, 20.424026431921622],
                        [-100.692714539056823, 20.468471047264284],
                        [-100.639710964208476, 20.494854008034761],
                        [-100.598283859847399, 20.493215598964806],
                        [-100.519040463372633, 20.527019396054477],
                        [-100.504765445041087, 20.555033403296417],
                        [-100.509755583397265, 20.506526840688132],
                        [-100.488383682019943, 20.473312680593033],
                        [-100.469544537228472, 20.386943833336169]
                    ]
                ]
            }
        },
        {
            "type": "Feature",
            "properties": { "color": "red", "entidad_cvegeo": "11", "municipio_cvegeo": "11005", "entidad_nombre": "Apaseo el Grande", "municipi_2": "SRID=6362;MULTIPOLYGON(((2646700.9742 966708.525800001,2646858.2657 966428.106800001,2647095.7129 965960.8794,2647176.4396 965806.384300001,2647204.3327 965673.457699999,2647232.6324 965459.2973,2647222.7977 965455.243900001,2647209.3394 965442.943500001", "municipi_3": 0 },
            "geometry": {
                "type": "Polygon",
                "coordinates": [
                    [
                        [-100.48884126468954, 20.594397208856186],
                        [-100.504765445041087, 20.555033403296417],
                        [-100.519040463372633, 20.527019396054477],
                        [-100.598283859847399, 20.493215598964806],
                        [-100.639710964208476, 20.494854008034761],
                        [-100.692714539056823, 20.468471047264284],
                        [-100.764463523464471, 20.508090181305842],
                        [-100.750992026368664, 20.549554974287382],
                        [-100.712654016877337, 20.567797757913304],
                        [-100.698333943105098, 20.621167181015021],
                        [-100.6348829175936, 20.66676665299206],
                        [-100.618560280104759, 20.716088152216894],
                        [-100.596506863967832, 20.717312172288246],
                        [-100.48884126468954, 20.594397208856186]
                    ]
                ]
            }
        },
        {
            "type": "Feature",
            "properties": { "color": "red", "entidad_cvegeo": "11", "municipio_cvegeo": "11006", "entidad_nombre": "Atarjea", "municipi_2": "SRID=6362;MULTIPOLYGON(((2728900.5094 1044377.8896,2729190.7249 1044226.1996,2729163.7649 1044189.3857,2729197.3349 1044168.0806,2729192.1081 1043919.4924,2729204.4922 1043850.9339,2729205.3084 1043711.4087,2729080.6404 1043610.2978,2729128.2101 1043351.", "municipi_3": 0 },
            "geometry": {
                "type": "Polygon",
                "coordinates": [
                    [
                        [-99.779101452484795, 21.394928199330057],
                        [-99.79452201080521, 21.357399414546439],
                        [-99.757893574939899, 21.292140369481146],
                        [-99.707565309202536, 21.314545832923386],
                        [-99.673603086068226, 21.296949539511594],
                        [-99.693409348274287, 21.235896301701509],
                        [-99.73848345916582, 21.23581776366343],
                        [-99.829145297483507, 21.157934870310932],
                        [-99.904222212394032, 21.185322911413753],
                        [-99.859261519025154, 21.340311633525683],
                        [-99.829738717403089, 21.377375159375759],
                        [-99.779101452484795, 21.394928199330057]
                    ]
                ]
            }
        },
        {
            "type": "Feature",
            "properties": { "color": "red", "entidad_cvegeo": "11", "municipio_cvegeo": "11007", "entidad_nombre": "Celaya", "municipi_2": "SRID=6362;MULTIPOLYGON(((2638568.2075 964913.291099999,2639809.0424 963337.4386,2640486.3982 962886.4771,2640784.2771 962892.3114,2641150.0992 962885.9947,2641397.2477 962876.9166,2641575.0383 962870.386100002,2641643.8056 962867.860300001,2641607.5471 9", "municipi_3": 0 },
            "geometry": {
                "type": "Polygon",
                "coordinates": [
                    [
                        [-100.6348829175936, 20.66676665299206],
                        [-100.698333943105098, 20.621167181015021],
                        [-100.712654016877337, 20.567797757913304],
                        [-100.750992026368664, 20.549554974287382],
                        [-100.764463523464471, 20.508090181305842],
                        [-100.692714539056823, 20.468471047264284],
                        [-100.690695966261316, 20.424026431921622],
                        [-100.737428258416969, 20.373857636331962],
                        [-100.82360780215997, 20.375154296503194],
                        [-100.844409557520919, 20.391807260821768],
                        [-100.845324446058328, 20.482253736491735],
                        [-100.909019168704049, 20.515633090993397],
                        [-100.91077632372324, 20.56958371729322],
                        [-100.874059193003575, 20.585059159403393],
                        [-100.860583368635844, 20.661151665145542],
                        [-100.809328777912555, 20.688252688455673],
                        [-100.762137644443669, 20.649775096490679],
                        [-100.722345759790443, 20.679782073937833],
                        [-100.666846558324238, 20.688636429110986],
                        [-100.6348829175936, 20.66676665299206]
                    ]
                ]
            }
        },
        {
            "type": "Feature",
            "properties": { "color": "red", "entidad_cvegeo": "11", "municipio_cvegeo": "11008", "entidad_nombre": "Manuel Doblado", "municipi_2": "SRID=6362;MULTIPOLYGON(((2514847.9105 979956.523499999,2514881.7539 979849.770799998,2514938.1527 979938.600499999,2514962.9868 979977.715399999,2515031.9215 980086.289000001,2515063.1631 980135.4954,2515115.2352 980236.244600002,2515153.151 980258.6556,", "municipi_3": 0 },
            "geometry": {
                "type": "Polygon",
                "coordinates": [
                    [
                        [-101.734845331052611, 20.794869009306858],
                        [-101.693812489144918, 20.784184577761863],
                        [-101.690670626203541, 20.696049490258659],
                        [-101.753468750795236, 20.664642319602677],
                        [-101.77616685740891, 20.622726225869794],
                        [-101.857947580763437, 20.539997710334493],
                        [-101.928882586995115, 20.567718021083429],
                        [-101.968960316904358, 20.562381109647159],
                        [-101.955893949271626, 20.628095376177207],
                        [-102.013837491482818, 20.664441171966995],
                        [-102.014389375677766, 20.717063662002037],
                        [-102.073354817060562, 20.749465795553089],
                        [-102.067436092368666, 20.771649683116291],
                        [-102.047808707683288, 20.819452864154989],
                        [-101.996030531060384, 20.835213265489962],
                        [-101.903018542911454, 20.826248983158102],
                        [-101.861090505465853, 20.84633301691202],
                        [-101.770750738860016, 20.799644284120092],
                        [-101.734845331052611, 20.794869009306858]
                    ]
                ]
            }
        }
    ]
}